Division,WeightClassKg,Place,Name,Team,BodyweightKg,Best3SquatKg,Best3BenchKg,Best3DeadliftKg,TotalKg,Equipment,Event,Sex
Boys,51.71,1,Jorge Saldana,Natalia,50.35,136.08,70.31,158.76,365.14,Single-ply,SBD,M
Boys,51.71,2,Angel Bermudez,Poteet,50.8,133.81,88.45,142.88,365.14,Single-ply,SBD,M
Boys,51.71,3,Oziel Padilla,Natalia,51.3,127.01,56.7,129.27,312.98,Single-ply,SBD,M
Boys,55.79,4,Dimas Tenorio,Crystal City,51.8,115.67,61.23,133.81,310.71,Single-ply,SBD,M
Boys,51.71,5,Justin Gutierrez,Crystal City,51.44,113.4,61.23,124.74,299.37,Single-ply,SBD,M
Boys,51.71,6,Jose Nevarez,Uvalde,47.68,104.33,54.43,131.54,290.3,Single-ply,SBD,M
Boys,51.71,7,Isaiah Lucio,Pearsall,49.53,102.06,68.04,120.2,290.3,Single-ply,SBD,M
Boys,55.79,DQ,Keenan Mata,Crystal City,51.89,83.91,,,,Single-ply,SBD,M
Boys,55.79,1,Jermaine Mendiola,Somerset,54.02,133.81,72.57,142.88,349.27,Single-ply,SBD,M
Boys,55.79,2,Jm Elizondo,Pearsall,53.59,133.81,72.57,133.81,340.19,Single-ply,SBD,M
Boys,59.87,3,Matthew Medrano,Pearsall,55.97,142.88,54.43,142.88,340.19,Single-ply,SBD,M
Boys,55.79,4,Javier Flores,Crystal City,54.7,113.4,90.72,129.27,333.39,Single-ply,SBD,M
Boys,59.87,5,Robert Rendon,Crystal City,55.97,127.01,61.23,127.01,315.25,Single-ply,SBD,M
Boys,55.79,6,Carlitos Garcia,Uvalde,55.43,102.06,72.57,102.06,276.69,Single-ply,SBD,M
Boys,55.79,7,Carlos Ocampo,Natalia,54.03,104.33,52.16,111.13,267.62,Single-ply,SBD,M
Boys,55.79,8,Brandon Rincon,Castroville Medina Valley,55.07,86.18,52.16,97.52,235.87,Single-ply,SBD,M
Boys,55.79,9,Ruben Mendez,Castroville Medina Valley,52.25,79.38,40.82,90.72,210.92,Single-ply,SBD,M
Boys,55.79,DQ,Zach Harding,Castroville Medina Valley,54.43,122.47,,,,Single-ply,SBD,M
Boys,55.79,DQ,Randy Mancha,Crystal City,54.43,131.54,,,,Single-ply,SBD,M
Boys,59.87,1,Ricky Guerra,Poteet,56.52,183.7,104.33,181.44,469.47,Single-ply,SBD,M
Boys,59.87,2,Alan Espinosa,Dilley,59.15,181.44,90.72,195.04,467.2,Single-ply,SBD,M
Boys,59.87,3,Rudy Martinez,Carrizo Springs,58.79,163.29,83.91,185.97,433.18,Single-ply,SBD,M
Boys,67.13,4,Landon Camacho,Pleasanton,59.92,154.22,88.45,142.88,385.55,Single-ply,SBD,M
Boys,59.87,5,Rene Rodriguez,Pearsall,59.47,138.35,79.38,149.69,367.41,Single-ply,SBD,M
Boys,59.87,6,Raul Cruz,Carrizo Springs,58.56,127.01,77.11,145.15,349.27,Single-ply,SBD,M
Boys,67.13,7,Robert Perez,Uvalde,59.96,113.4,79.38,147.42,340.19,Single-ply,SBD,M
Boys,59.87,8,Sebastian Estrada,Somerset,56.88,106.59,65.77,136.08,308.44,Single-ply,SBD,M
Boys,67.13,9,Andres Rodriguez,Castroville Medina Valley,59.96,97.52,65.77,124.74,288.03,Single-ply,SBD,M
Boys,59.87,10,Daniel Cardenas,Uvalde,59.48,88.45,72.57,115.67,276.69,Single-ply,SBD,M
Boys,59.87,11,Carlos Ramirez #4,Natalia,59.78,72.57,43.09,92.99,208.65,Single-ply,SBD,M
Boys,59.87,DQ,Daniel Alvarado,Natalia,58.15,,,,,Single-ply,SBD,M
Boys,67.13,DQ,Enrique Medrano,Crystal City,60.06,,,,,Single-ply,SBD,M
Boys,74.84,1,Ozzy Gonzalez,Somerset,67.18,181.44,83.91,179.17,444.52,Single-ply,SBD,M
Boys,67.13,2,Jess Rutledge,Carrizo Springs,61.96,176.9,92.99,172.37,442.25,Single-ply,SBD,M
Boys,74.84,3,Tyler Gould,Pleasanton,67.18,161.03,92.99,156.49,410.5,Single-ply,SBD,M
Boys,67.13,4,Isac Alvarez,Crystal City,62.05,149.69,83.91,167.83,401.43,Single-ply,SBD,M
Boys,74.84,5,Eden Martinez,Carrizo Springs,67.31,158.76,83.91,154.22,396.89,Single-ply,SBD,M
Boys,67.13,6,Sid Alcoser,Somerset,60.83,156.49,72.57,163.29,392.36,Single-ply,SBD,M
Boys,67.13,7,Oscar de Leon,Somerset,62.6,133.81,92.99,149.69,376.48,Single-ply,SBD,M
Boys,67.13,8,Craig Jacobs,Center Point,64.91,140.61,90.72,136.08,367.41,Single-ply,SBD,M
Boys,67.13,9,Erik Villarreal,Natalia,65.41,142.88,61.23,149.69,353.8,Single-ply,SBD,M
Boys,67.13,10,Deondre Omorayi,Carrizo Springs,62.19,133.81,72.57,142.88,349.27,Single-ply,SBD,M
Boys,67.13,11,Jonathon Edwards,Pleasanton,66.95,115.67,61.23,138.35,315.25,Single-ply,SBD,M
Boys,67.13,12,Eduardo Medrano,Uvalde,60.39,117.93,63.5,131.54,312.98,Single-ply,SBD,M
Boys,67.13,13,Alex Hewgley,Castroville Medina Valley,66.32,111.13,65.77,136.08,312.98,Single-ply,SBD,M
Boys,67.13,DQ,James Martinez #6,Castroville Medina Valley,66.32,104.33,,,,Single-ply,SBD,M
Boys,67.13,DQ,Andrew Esquivel,Carrizo Springs,66.32,,,,,Single-ply,SBD,M
Boys,74.84,1,John Valdez,Somerset,74.48,213.19,122.47,183.7,519.36,Single-ply,SBD,M
Boys,74.84,2,Craig Wells,San Antonio Brooks Academy,73.48,183.7,111.13,185.97,480.81,Single-ply,SBD,M
Boys,74.84,3,Raul Garcia,Carrizo Springs,69.4,188.24,86.18,201.85,476.27,Single-ply,SBD,M
Boys,74.84,4,David Puente,Crystal City,72.57,165.56,108.86,188.24,462.66,Single-ply,SBD,M
Boys,74.84,5,Demitri Molina,Somerset,74.43,172.37,95.25,188.24,455.86,Single-ply,SBD,M
Boys,74.84,6,Zeke Hinojosa,Pearsall,74.03,165.56,88.45,174.63,428.64,Single-ply,SBD,M
Boys,82.1,7,Lemuel Ramirez,Center Point,74.89,172.37,102.06,149.69,424.11,Single-ply,SBD,M
Boys,74.84,8,Reagan Luce,Barksdale Nueces Canyon,73.21,154.22,95.25,167.83,417.3,Single-ply,SBD,M
Boys,74.84,9,Steven Nicholson,Natalia,74.21,161.03,74.84,170.1,405.97,Single-ply,SBD,M
Boys,74.84,10,Daniel Martinez #21,Center Point,71.26,140.61,81.65,154.22,376.48,Single-ply,SBD,M
Boys,74.84,11,Bradley Mankin,Carrizo Springs,74.21,124.74,77.11,151.95,353.8,Single-ply,SBD,M
Boys,74.84,12,Ray Riojas,Carrizo Springs,68.08,124.74,79.38,147.42,351.53,Single-ply,SBD,M
Boys,74.84,13,Philip Carleton,Barksdale Nueces Canyon,73.53,108.86,81.65,149.69,340.19,Single-ply,SBD,M
Boys,74.84,14,José Fernández,San Antonio Brooks Academy,74.48,120.2,74.84,117.93,312.98,Single-ply,SBD,M
Boys,82.1,1,Pedro Molina,Somerset,78.11,240.4,129.27,254.01,623.69,Single-ply,SBD,M
Boys,82.1,2,Jon Ventura,Pearsall,81.74,210.92,122.47,235.87,569.26,Single-ply,SBD,M
Boys,82.1,3,Christopher Vinton,Pearsall,78.02,208.65,124.74,195.04,528.44,Single-ply,SBD,M
Boys,82.1,4,Thomas Trevino,Pleasanton,81.28,199.58,111.13,192.78,503.49,Single-ply,SBD,M
Boys,82.1,5,Ben Guthrie,Center Point,81.69,185.97,122.47,163.29,471.74,Single-ply,SBD,M
Boys,82.1,6,Rosendo Quintero,Somerset,78.93,136.08,104.33,192.78,433.18,Single-ply,SBD,M
Boys,82.1,7,Thomas Rodriguez,Somerset,80.65,176.9,81.65,170.1,428.64,Single-ply,SBD,M
Boys,82.1,8,Rigo Hernandez,Uvalde,80.83,156.49,81.65,147.42,385.55,Single-ply,SBD,M
Boys,82.1,9,Steve Medrano,Dilley,76.25,136.08,83.91,151.95,371.95,Single-ply,SBD,M
Boys,82.1,10,Albert Romo,Castroville Medina Valley,79.02,131.54,92.99,138.35,362.87,Single-ply,SBD,M
Boys,82.1,11,Victor Perez,Pleasanton,77.61,136.08,74.84,133.81,344.73,Single-ply,SBD,M
Boys,82.1,12,Xzavier Reyes,Poteet,78.52,124.74,63.5,136.08,324.32,Single-ply,SBD,M
Boys,82.1,13,Phillip Aquero,Somerset,77.11,88.45,40.82,99.79,229.06,Single-ply,SBD,M
Boys,82.1,DQ,Matt Chapa,Center Point,77.16,183.7,,,,Single-ply,SBD,M
Boys,89.81,1,Justin Quesada,Somerset,86.18,235.87,151.95,213.19,601.01,Single-ply,SBD,M
Boys,99.79,2,Fabian Huerta,Crystal City,89.99,213.19,111.13,213.19,537.51,Single-ply,SBD,M
Boys,89.81,3,Silverio Trejo,Pearsall,83.96,192.78,111.13,199.58,503.49,Single-ply,SBD,M
Boys,89.81,4,Brayden Baur,Pleasanton,84.91,183.7,102.06,158.76,444.52,Single-ply,SBD,M
Boys,89.81,5,Calvin Martinez,Carrizo Springs,84.01,161.03,102.06,161.03,424.11,Single-ply,SBD,M
Boys,89.81,6,Derek Garcia,Uvalde,84.41,136.08,92.99,149.69,378.75,Single-ply,SBD,M
Boys,89.81,7,Joshua Cuevas,Pearsall,87.54,145.15,77.11,156.49,378.75,Single-ply,SBD,M
Boys,89.81,8,Brandon Martinez,Castroville Medina Valley,87.14,111.13,79.38,124.74,315.25,Single-ply,SBD,M
Boys,89.81,DQ,Antonio Ramirez,Crystal City,89.58,124.74,,,,Single-ply,SBD,M
Boys,109.77,1,Justin Lomas,Crystal City,99.97,267.62,127.01,217.72,612.35,Single-ply,SBD,M
Boys,99.79,2,Jesus Piliado,Somerset,94.62,183.7,92.99,183.7,460.4,Single-ply,SBD,M
Boys,99.79,3,Andrew Estrada,Carrizo Springs,98.93,201.85,86.18,163.29,451.32,Single-ply,SBD,M
Boys,99.79,4,Abraham Cantu,Pearsall,95.3,170.1,86.18,172.37,428.64,Single-ply,SBD,M
Boys,99.79,5,Leo Martinez,Center Point,98.97,158.76,86.18,149.69,394.63,Single-ply,SBD,M
Boys,99.79,6,Christian Silvas,Crystal City,92.53,145.15,104.33,142.88,392.36,Single-ply,SBD,M
Boys,99.79,7,Zach Zavala,Crystal City,98.16,145.15,74.84,145.15,365.14,Single-ply,SBD,M
Boys,99.79,8,Thomas Duran,San Antonio Brooks Academy,90.63,127.01,83.91,136.08,347,Single-ply,SBD,M
Boys,99.79,9,Dustyn Hawes,Castroville Medina Valley,93.49,113.4,70.31,147.42,331.12,Single-ply,SBD,M
Boys,99.79,DQ,Robert Cervantez,Dilley,91.67,145.15,,,,Single-ply,SBD,M
Boys,109.77,1,Sal Marines,Somerset,104.83,317.51,151.95,285.76,755.23,Single-ply,SBD,M
Boys,109.77,2,Mark Cerda,Somerset,108.41,217.72,131.54,226.8,576.06,Single-ply,SBD,M
Boys,109.77,3,Chris Trujillo,Center Point,106.5,217.72,127.01,204.12,548.85,Single-ply,SBD,M
Boys,109.77,4,Darren Garcia,Crystal City,105.41,226.8,106.59,204.12,537.51,Single-ply,SBD,M
Boys,109.77,5,Juan Onate,Barksdale Nueces Canyon,100.74,181.44,124.74,192.78,498.95,Single-ply,SBD,M
Boys,109.77,6,Gerald Garcia,Pleasanton,102.06,181.44,115.67,183.7,480.81,Single-ply,SBD,M
Boys,109.77,7,Austin Banks-Wilson,Castroville Medina Valley,107.95,151.95,106.59,204.12,462.66,Single-ply,SBD,M
Boys,109.77,8,Andrew Padilla,Poteet,104.37,204.12,86.18,170.1,460.4,Single-ply,SBD,M
Boys,109.77,DQ,Jacob Ybarra,Somerset,108.47,219.99,136.08,,,Single-ply,SBD,M
Boys,124.74,DQ,Joe Tovar,Somerset,109.81,,,,,Single-ply,SBD,M
Boys,124.74,DQ,David Orosco,Carrizo Springs,109.81,,,,,Single-ply,SBD,M
Boys,124.74,1,Gabriel Garza #1,Somerset,120.25,263.08,172.37,213.19,648.64,Single-ply,SBD,M
Boys,124.74,2,Adrian Contreras,Poteet,117.07,219.99,124.74,226.8,571.53,Single-ply,SBD,M
Boys,124.74,3,Bj Frieda,Somerset,113.31,215.46,122.47,190.51,528.44,Single-ply,SBD,M
Boys,124.74,4,Michael Garza #1,Crystal City,118.93,222.26,124.74,181.44,528.44,Single-ply,SBD,M
Boys,124.74,5,Otillio Carranza,Uvalde,114.21,226.8,104.33,185.97,517.1,Single-ply,SBD,M
Boys,124.74,6,Cody Peterson,Pleasanton,115.76,224.53,102.06,188.24,514.83,Single-ply,SBD,M
Boys,124.74,7,Colton Knapp,Pleasanton,113.4,190.51,111.13,185.97,487.61,Single-ply,SBD,M
Boys,124.74,8,Juan Ramirez,Carrizo Springs,118.3,154.22,124.74,195.04,474,Single-ply,SBD,M
Boys,124.74,9,Michael Balderas,Poteet,117.98,183.7,83.91,176.9,444.52,Single-ply,SBD,M
Boys,124.74,10,Joey Sanchez,Somerset,115.76,204.12,81.65,136.08,421.84,Single-ply,SBD,M
Boys,124.74,11,Josh Silva,Somerset,120.47,163.29,113.4,145.15,421.84,Single-ply,SBD,M
Boys,124.74+,12,Ray Navarro,Natalia,124.83,181.44,72.57,167.83,421.84,Single-ply,SBD,M
Boys,124.74,13,Daniel Ramirez,Somerset,115.26,158.76,102.06,158.76,419.57,Single-ply,SBD,M
Boys,124.74,14,Jon Lara,Natalia,117.53,165.56,81.65,156.49,403.7,Single-ply,SBD,M
Boys,124.74,15,Jonathan Rubio,Uvalde,114.8,129.27,83.91,151.95,365.14,Single-ply,SBD,M
Boys,124.74+,1,Nick O'Bryant,Castroville Medina Valley,134.44,294.84,167.83,254.01,716.68,Single-ply,SBD,M
Boys,124.74+,2,Drew Kirkpatrick,Uvalde,134.81,244.94,145.15,226.8,616.89,Single-ply,SBD,M
Boys,124.74+,3,Andy Valladolid,Somerset,137.89,263.08,138.35,197.31,598.74,Single-ply,SBD,M
Boys,124.74+,4,Cody Martin,Center Point,133.4,217.72,136.08,217.72,571.53,Single-ply,SBD,M
Boys,124.74+,5,Ronnie Lucio,Poteet,127.19,235.87,117.93,204.12,557.92,Single-ply,SBD,M
Boys,124.74+,6,Mario Chavez,Carrizo Springs,163.34,149.69,79.38,167.83,396.89,Single-ply,SBD,M
Boys,124.74+,7,Juan Gomez,Crystal City,125.28,127.01,81.65,151.95,360.61,Single-ply,SBD,M
Boys,124.74+,8,Christian Soria,Somerset,140.61,111.13,81.65,136.08,328.85,Single-ply,SBD,M
Boys,124.74+,9,Chris Cobb,Somerset,130,99.79,54.43,108.86,263.08,Single-ply,SBD,M
Boys,124.74+,DQ,Moses Leon,Somerset,153.81,,,,,Single-ply,SBD,M
Boys,124.74+,DQ,Michael Reyes,Natalia,148.96,306.17,142.88,,,Single-ply,SBD,M
Boys,124.74+,DQ,Joe Aguero,Somerset,133.54,294.84,,,,Single-ply,SBD,M
