Division,WeightClassKg,Place,Name,Team,BodyweightKg,Best3SquatKg,Best3BenchKg,Best3DeadliftKg,TotalKg,Equipment,Event,Sex,BirthDate
Boys,51.71,1,Heath Schlottman,Mount Vernon,51.26,124.74,72.57,136.08,333.39,Single-ply,SBD,M,
Boys,51.71,2,Kale Roethle,Mount Vernon,51.44,122.47,49.9,133.81,306.17,Single-ply,SBD,M,
Boys,51.71,3,David Chavez,Mount Pleasant,50.53,92.99,49.9,127.01,269.89,Single-ply,SBD,M,
Boys,51.71,4,Quin Barrentine,Mount Vernon,48.99,95.25,58.97,104.33,258.55,Single-ply,SBD,M,
Boys,51.71,DQ,Colby Plasterer,Ore City,48.53,,,,,Single-ply,SBD,M,
Boys,55.79,1,Freddy Ponce,Gilmer,53.98,151.95,95.25,154.22,401.43,Single-ply,SBD,M,
Boys,55.79,2,Vandon Lassiter,Paris North Lamar,55.61,131.54,74.84,136.08,342.46,Single-ply,SBD,M,
Boys,55.79,3,Journey Sweet,Paris,53.16,102.06,56.7,99.79,258.55,Single-ply,SBD,M,
Boys,55.79,4,Preston Matlock,Tyler,53.16,102.06,63.5,,165.56,Single-ply,SB,M,
Boys,59.87,1,Jabier Bocanegra,Gilmer,59.78,172.37,104.33,179.17,455.86,Single-ply,SBD,M,
Boys,59.87,2,Blayce Lassiter,Paris North Lamar,58.97,181.44,83.91,181.44,446.79,Single-ply,SBD,M,
Boys,59.87,3,Matt Faggione,Gilmer,58.69,124.74,102.06,167.83,394.63,Single-ply,SBD,M,
Boys,59.87,4,Nicholas Burns,Marshall,56.25,158.76,72.57,158.76,390.09,Single-ply,SBD,M,
Boys,59.87,5,Kole Barrentine,Mount Vernon,59.42,142.88,74.84,167.83,385.55,Single-ply,SBD,M,
Boys,59.87,6,Luke Elrod,Paris North Lamar,56.61,136.08,77.11,156.49,369.68,Single-ply,SBD,M,
Boys,59.87,7,Alonzo Torres,Mount Vernon,59.87,120.2,72.57,158.76,351.53,Single-ply,SBD,M,
Boys,59.87,8,Lane Davis,Mount Pleasant Chapel Hill,58.51,124.74,74.84,138.35,337.93,Single-ply,SBD,M,
Boys,59.87,DQ,Deuntre Adamson,Paris,59.42,151.95,,,,Single-ply,SBD,M,
Boys,59.87,DQ,Ryan Bell,Paris North Lamar,56.25,,,,,Single-ply,SBD,M,
Boys,59.87,DQ,Jack Morris #2,Omaha Pewitt,56.43,,,,,Single-ply,SBD,M,
Boys,67.13,1,Hayden Justice,Paris North Lamar,66.95,204.12,104.33,188.24,496.68,Single-ply,SBD,M,
Boys,67.13,2,Jose Arzola,Mount Vernon,64.41,192.78,102.06,197.31,492.15,Single-ply,SBD,M,
Boys,67.13,3,Dq Jackson,Marshall,64.23,165.56,88.45,176.9,430.91,Single-ply,SBD,M,
Boys,67.13,4,Kyle Ritter,Ore City,64.86,147.42,83.91,161.03,392.36,Single-ply,SBD,M,
Boys,67.13,5,Brayden McCormack,Paris North Lamar,64.59,127.01,65.77,138.35,331.12,Single-ply,SBD,M,
Boys,67.13,6,Esteban Trejo,Mount Pleasant,66.32,129.27,61.23,140.61,331.12,Single-ply,SBD,M,
Boys,67.13,7,Andy Edwards,Mount Vernon,63.05,122.47,52.16,142.88,317.51,Single-ply,SBD,M,
Boys,67.13,8,Kenneth Villa,Mount Vernon,60.06,104.33,61.23,127.01,292.57,Single-ply,SBD,M,
Boys,67.13,9,Ryder Gibson,Omaha Pewitt,62.6,113.4,56.7,113.4,283.5,Single-ply,SBD,M,
Boys,67.13,DQ,Johnathan Jones,Paris,62.14,170.1,,,,Single-ply,SBD,M,
Boys,67.13,DQ,Wyatt Clepper,Texarkana Liberty-Eylau,64.59,,,,,Single-ply,SBD,M,
Boys,74.84,1,Devin Walters,Mount Pleasant Chapel Hill,74.3,197.31,120.2,208.65,526.17,Single-ply,SBD,M,
Boys,74.84,2,Aidan Alexander,Texarkana Liberty-Eylau,71.85,188.24,136.08,199.58,523.9,Single-ply,SBD,M,
Boys,74.84,3,Paul Leal,De Kalb,73.84,190.51,115.67,185.97,492.15,Single-ply,SBD,M,
Boys,74.84,4,Zane Phillips,Mount Pleasant,70.31,204.12,95.25,181.44,480.81,Single-ply,SBD,M,
Boys,74.84,5,Keegan Sprouse,Gilmer,72.85,161.03,99.79,195.04,455.86,Single-ply,SBD,M,
Boys,74.84,6,Cruz Hernandez,De Kalb,68.49,174.63,92.99,174.63,442.25,Single-ply,SBD,M,
Boys,74.84,7,Alder Smithson,Ore City,72.12,170.1,88.45,170.1,428.64,Single-ply,SBD,M,
Boys,74.84,8,Kadyn McDonald,Paris,68.4,156.49,74.84,156.49,387.82,Single-ply,SBD,M,
Boys,74.84,9,Patrick Roland,Paris,72.85,147.42,77.11,163.29,387.82,Single-ply,SBD,M,
Boys,74.84,10,Anthony Jeffrey,Mount Pleasant,69.85,136.08,74.84,158.76,369.68,Single-ply,SBD,M,
Boys,74.84,11,Juan Ramos,Mount Vernon,72.57,127.01,70.31,151.95,349.27,Single-ply,SBD,M,
Boys,74.84,12,Samuel Netro,Mount Pleasant Chapel Hill,71.76,97.52,63.5,154.22,315.25,Single-ply,SBD,M,
Boys,74.84,13,Juan Nava,Mount Pleasant,71.4,111.13,56.7,136.08,303.91,Single-ply,SBD,M,
Boys,74.84,14,Hayden Green,Omaha Pewitt,73.84,106.59,77.11,113.4,297.1,Single-ply,SBD,M,
Boys,74.84,15,Dustin Holbert,Paris North Lamar,69.31,70.31,43.09,117.93,231.33,Single-ply,SBD,M,
Boys,74.84,DQ,Reggie Ellis,Paris,73.75,163.29,,,,Single-ply,SBD,M,
Boys,74.84,DQ,Tony Alexander,Tyler,70.4,154.22,,,,Single-ply,SBD,M,
Boys,74.84,DQ,Lleyton Reed,Texarkana Liberty-Eylau,74.3,,,,,Single-ply,SBD,M,
Boys,82.1,1,Keshawn Wallace,Paris,80.1,215.46,145.15,213.19,573.79,Single-ply,SBD,M,
Boys,82.1,2,Amar Love,De Kalb,81.56,215.46,115.67,219.99,551.11,Single-ply,SBD,M,
Boys,82.1,3,Dillon Kizer,De Kalb,81.74,204.12,129.27,204.12,537.51,Single-ply,SBD,M,
Boys,82.1,4,Ahmajay Carter,Texarkana Liberty-Eylau,76.57,192.78,115.67,208.65,517.1,Single-ply,SBD,M,
Boys,82.1,5,Blake Hollingsworth,Mount Vernon,81.65,201.85,102.06,204.12,508.02,Single-ply,SBD,M,
Boys,82.1,6,Cameron Cox,Gilmer,77.2,183.7,124.74,174.63,483.08,Single-ply,SBD,M,
Boys,82.1,7,David Walters,Mount Pleasant Chapel Hill,78.56,165.56,113.4,188.24,467.2,Single-ply,SBD,M,
Boys,82.1,8,Questyn Dunlap,Mount Vernon,79.83,185.97,65.77,204.12,455.86,Single-ply,SBD,M,
Boys,82.1,9,Jordan Seth,Gilmer,80.2,161.03,95.25,158.76,415.04,Single-ply,SBD,M,
Boys,82.1,10,Reese Chaffin,Paris North Lamar,77.02,161.03,90.72,154.22,405.97,Single-ply,SBD,M,
Boys,82.1,11,Jamarious Burris,Texarkana Liberty-Eylau,81.56,158.76,77.11,156.49,392.36,Single-ply,SBD,M,
Boys,82.1,12,Courtlyn Crabtree,Texarkana Liberty-Eylau,77.2,131.54,86.18,142.88,360.61,Single-ply,SBD,M,
Boys,82.1,13,Johnathan Alanzo,Ore City,76.2,124.74,74.84,158.76,358.34,Single-ply,SBD,M,
Boys,82.1,14,Mason Pope,Mount Vernon,80.74,124.74,65.77,158.76,349.27,Single-ply,SBD,M,
Boys,82.1,15,Brayden Skelton,Mount Vernon,78.47,117.93,58.97,111.13,288.03,Single-ply,SBD,M,
Boys,82.1,DQ,Isaiah Baker,Tyler,81.65,,,,,Single-ply,SBD,M,
Boys,82.1,DQ,Avery Weaver,Gilmer,78.93,,,,,Single-ply,SBD,M,
Boys,82.1,DQ,Dustin Newman,Mount Pleasant Chapel Hill,81.83,,,,,Single-ply,SBD,M,
Boys,82.1,DQ,Ben Lantham,Omaha Pewitt,77.38,,,,,Single-ply,SBD,M,
Boys,89.81,1,Arie Love,De Kalb,87.09,240.4,129.27,244.94,614.62,Single-ply,SBD,M,
Boys,89.81,2,Carron Eaton,Texarkana Liberty-Eylau,86.91,197.31,142.88,226.8,566.99,Single-ply,SBD,M,
Boys,89.81,3,Kole Dooley,De Kalb,89.45,226.8,129.27,188.24,544.31,Single-ply,SBD,M,
Boys,89.81,4,Qudariun McMiller,Tyler,82.83,199.58,113.4,195.04,508.02,Single-ply,SBD,M,
Boys,89.81,5,Jailen Franklin,Paris,84.73,188.24,104.33,210.92,503.49,Single-ply,SBD,M,
Boys,89.81,6,Joshua Cheatham,Texarkana Liberty-Eylau,88.45,192.78,97.52,213.19,503.49,Single-ply,SBD,M,
Boys,89.81,7,Chandler Sikes,Paris,89.72,192.78,106.59,204.12,503.49,Single-ply,SBD,M,
Boys,89.81,8,Elias Elizondo,Mount Pleasant,88,190.51,92.99,204.12,487.61,Single-ply,SBD,M,
Boys,89.81,9,Joel Martinez,Mount Vernon,84.82,174.63,106.59,204.12,485.34,Single-ply,SBD,M,
Boys,89.81,10,Cayden Coleman,Gilmer,87.36,170.1,106.59,176.9,453.59,Single-ply,SBD,M,
Boys,89.81,11,Bradley Hyatt,Paris North Lamar,88.18,145.15,108.86,161.03,415.04,Single-ply,SBD,M,
Boys,89.81,12,James Gilmore,Omaha Pewitt,86.09,142.88,74.84,158.76,376.48,Single-ply,SBD,M,
Boys,89.81,13,John Taylor #11,Tyler,84.82,124.74,83.91,158.76,367.41,Single-ply,SBD,M,
Boys,89.81,DQ,Nick Clark #1,Gilmer,85.09,142.88,,,,Single-ply,SBD,M,
Boys,99.79,1,Carter Renfro,Paris North Lamar,96.62,197.31,124.74,226.8,548.85,Single-ply,SBD,M,
Boys,99.79,2,Cole Williams,Marshall,89.9,195.04,113.4,199.58,508.02,Single-ply,SBD,M,
Boys,99.79,3,Nate Gamble,Texarkana Liberty-Eylau,96.8,172.37,113.4,188.24,474,Single-ply,SBD,M,
Boys,99.79,4,Samuel Fuentes,Tyler,97.07,183.7,97.52,188.24,469.47,Single-ply,SBD,M,
Boys,99.79,5,Taylor Nealy,Gilmer,96.43,172.37,117.93,170.1,460.4,Single-ply,SBD,M,
Boys,99.79,6,Terrell Davis,Marshall,97.43,183.7,102.06,170.1,455.86,Single-ply,SBD,M,
Boys,99.79,7,Astin Ledbetter,Mount Pleasant,93.26,167.83,102.06,181.44,451.32,Single-ply,SBD,M,
Boys,99.79,8,Maverick Brown,Paris North Lamar,95.07,156.49,99.79,151.95,408.23,Single-ply,SBD,M,
Boys,99.79,9,Charles Baker,Tyler,95.89,147.42,90.72,149.69,387.82,Single-ply,SBD,M,
Boys,109.77,1,Maleik Riley,Texarkana Liberty-Eylau,103.69,204.12,117.93,219.99,542.04,Single-ply,SBD,M,
Boys,109.77,2,Jarot Ritter,Gilmer,101.33,176.9,122.47,185.97,485.34,Single-ply,SBD,M,
Boys,109.77,3,Blake Mays,Mount Pleasant,108.05,165.56,111.13,176.9,453.59,Single-ply,SBD,M,
Boys,109.77,4,Corbin Brantley,Mount Vernon,100.7,170.1,111.13,170.1,451.32,Single-ply,SBD,M,
Boys,109.77,5,Jonathan Pearce,Mount Vernon,105.23,136.08,102.06,142.88,381.02,Single-ply,SBD,M,
Boys,109.77,6,Oscar Perez,Mount Pleasant,103.42,156.49,77.11,133.81,367.41,Single-ply,SBD,M,
Boys,109.77,7,Kevin Duncan,Paris North Lamar,107.68,45.36,43.09,70.31,158.76,Single-ply,SBD,M,
Boys,109.77,8,Kaiden O'Neal,Paris North Lamar,101.15,45.36,43.09,61.23,149.69,Single-ply,SBD,M,
Boys,109.77,DQ,Jay Washington,Marshall,107.32,,,,,Single-ply,SBD,M,
Boys,124.74,1,George Lias,Mount Pleasant,112.4,278.96,138.35,249.48,666.78,Single-ply,SBD,M,
Boys,124.74,2,Quin Dangerfield,Paris,112.31,247.21,154.22,254.01,655.44,Single-ply,SBD,M,
Boys,124.74,3,Satchel Swain,Paris,123.65,249.48,149.69,219.99,619.15,Single-ply,SBD,M,
Boys,124.74,4,Isaiah Alexander,Marshall,111.31,226.8,117.93,217.72,562.45,Single-ply,SBD,M,
Boys,124.74,5,Alan Quinones,Mount Vernon,124.28,231.33,133.81,197.31,562.45,Single-ply,SBD,M,
Boys,124.74,6,Jesus Gonzalez,Mount Pleasant,113.76,199.58,122.47,215.46,537.51,Single-ply,SBD,M,
Boys,124.74,7,Andrew Parker,Gilmer,118.93,199.58,136.08,195.04,530.7,Single-ply,SBD,M,
Boys,124.74,8,David Ardinger,Texarkana Liberty-Eylau,119.39,206.38,113.4,208.65,528.44,Single-ply,SBD,M,
Boys,124.74,9,Braeden Wilkins,Paris North Lamar,119.48,192.78,115.67,181.44,489.88,Single-ply,SBD,M,
Boys,124.74,10,Landon Manning,Gilmer,114.4,145.15,97.52,127.01,369.68,Single-ply,SBD,M,
Boys,124.74,11,Payton Campbell,Tyler,112.76,127.01,54.43,131.54,312.98,Single-ply,SBD,M,
Boys,124.74,DQ,Bladen Collom,Gilmer,119.39,,,,,Single-ply,SBD,M,
Boys,124.74+,1,Ashton Williams,Tyler,158.21,249.48,163.29,217.72,630.49,Single-ply,SBD,M,
Boys,124.74+,2,Quinton Johnson,Mount Vernon,135.17,263.08,117.93,244.94,625.96,Single-ply,SBD,M,
Boys,124.74+,3,Devin Moten,Paris,137.08,233.6,138.35,222.26,594.21,Single-ply,SBD,M,
Boys,124.74+,4,Taron Satchell,Marshall,132.72,226.8,122.47,215.46,564.72,Single-ply,SBD,M,
Boys,124.74+,5,Joshua Wright #3,Texarkana Liberty-Eylau,155.95,181.44,142.88,208.65,532.97,Single-ply,SBD,M,
Boys,124.74+,6,Tyler Welborn,Mount Pleasant,150.59,201.85,120.2,208.65,530.7,Single-ply,SBD,M,
Boys,124.74+,7,Josh Herrera,Mount Pleasant,139.25,226.8,106.59,188.24,521.63,Single-ply,SBD,M,
Boys,124.74+,8,Luke Hohenberger,Paris North Lamar,139.93,192.78,108.86,192.78,494.42,Single-ply,SBD,M,
Boys,124.74+,9,Jon Tatum,Ore City,129.73,181.44,104.33,181.44,467.2,Single-ply,SBD,M,
Boys,124.74+,10,Garrick Felsberg,Paris North Lamar,132.18,172.37,120.2,167.83,460.4,Single-ply,SBD,M,
Boys,124.74+,11,Ryan Giberson,Paris North Lamar,175.99,156.49,83.91,158.76,399.16,Single-ply,SBD,M,
Boys,124.74+,DQ,Mitchell Elder,Tyler,139.98,,,,,Single-ply,SBD,M,
Boys,124.74+,DQ,Gabe Dials,Texarkana Liberty-Eylau,125.55,204.12,115.67,,,Single-ply,SBD,M,
Boys,124.74+,DQ,Jason Murphy,Texarkana Liberty-Eylau,147.33,,,,,Single-ply,SBD,M,
