Division,WeightClassKg,Place,Name,Team,BodyweightKg,Best3SquatKg,Best3BenchKg,Best3DeadliftKg,TotalKg,Equipment,Event,Sex,BirthDate
Boys,51.71,1,Joseph Sandoval,Azle,51.71,88.45,56.7,102.06,247.21,Single-ply,SBD,M,
Boys,51.71,2,Korbin Pentoja,Azle,46.72,61.23,34.02,77.11,172.37,Single-ply,SBD,M,
Boys,55.79,1,Hunter Ooten,Azle,55.34,81.65,38.56,97.52,217.72,Single-ply,SBD,M,
Boys,55.79,DQ,Ethan Jackson,Springtown,53.98,165.56,,158.76,,Single-ply,SBD,M,
Boys,59.87,1,Patrick Richey,Springtown,59.42,133.81,61.23,124.74,319.78,Single-ply,SBD,M,
Boys,67.13,1,Denim Fields #1,Azle,66.22,158.76,88.45,183.7,430.91,Single-ply,SBD,M,
Boys,67.13,2,Orion Gray,Springtown,66.68,133.81,88.45,142.88,365.14,Single-ply,SBD,M,
Boys,67.13,3,Justin Hays,White Settlement Brewer,63.5,90.72,72.57,120.2,283.5,Single-ply,SBD,M,
Boys,67.13,4,Connor Tomlinson,Azle,64.86,102.06,61.23,108.86,272.16,Single-ply,SBD,M,
Boys,67.13,5,Jamie Ramirez,Azle,64.41,90.72,61.23,99.79,251.74,Single-ply,SBD,M,
Boys,74.84,1,Kevin Nyguen,Azle,73.94,183.7,129.27,204.12,517.1,Single-ply,SBD,M,
Boys,74.84,2,Jordan Johnson,White Settlement Brewer,73.94,185.97,95.25,208.65,489.88,Single-ply,SBD,M,
Boys,74.84,3,Vance Guthrie,Azle,73.03,174.63,113.4,190.51,478.54,Single-ply,SBD,M,
Boys,74.84,4,Cash Moore,Azle,73.94,158.76,111.13,165.56,435.45,Single-ply,SBD,M,
Boys,74.84,5,Terrance Durham,White Settlement Brewer,73.03,147.42,102.06,183.7,433.18,Single-ply,SBD,M,
Boys,74.84,6,Kayden Brooks,White Settlement Brewer,68.49,161.03,90.72,176.9,428.64,Single-ply,SBD,M,
Boys,74.84,7,Jack Jestis,Azle,74.39,142.88,111.13,158.76,412.77,Single-ply,SBD,M,
Boys,74.84,8,Joel Bird,Springtown,74.39,117.93,74.84,131.54,324.32,Single-ply,SBD,M,
Boys,82.1,1,Alec Boyle,White Settlement Brewer,82.1,217.72,172.37,208.65,598.74,Single-ply,SBD,M,
Boys,82.1,2,Mekhi Elmore,White Settlement Brewer,79.38,172.37,104.33,176.9,453.59,Single-ply,SBD,M,
Boys,82.1,3,Andrew Jiminez,Azle,79.83,138.35,102.06,176.9,417.3,Single-ply,SBD,M,
Boys,82.1,4,Khalil Stolden,White Settlement Brewer,79.83,156.49,97.52,158.76,412.77,Single-ply,SBD,M,
Boys,82.1,5,Will Washington,White Settlement Brewer,75.3,163.29,79.38,163.29,405.97,Single-ply,SBD,M,
Boys,82.1,6,Yair Hernandez,Springtown,81.65,142.88,92.99,165.56,401.43,Single-ply,SBD,M,
Boys,82.1,7,Isaiah Haddon,Azle,81.65,124.74,99.79,138.35,362.87,Single-ply,SBD,M,
Boys,82.1,8,Levy Owens,Azle,79.38,124.74,77.11,133.81,335.66,Single-ply,SBD,M,
Boys,82.1,DQ,Hayden Nichols,Springtown,79.38,138.35,,156.49,,Single-ply,SBD,M,
Boys,82.1,DQ,Levi Ethridge,Springtown,81.65,131.54,,142.88,,Single-ply,SBD,M,
Boys,89.81,1,Ethan Moore,White Settlement Brewer,84.37,170.1,106.59,176.9,453.59,Single-ply,SBD,M,
Boys,89.81,2,Ridge Westendorf,Springtown,89.36,161.03,83.91,174.63,419.57,Single-ply,SBD,M,
Boys,89.81,3,Jaylen Spriggs,White Settlement Brewer,87.54,165.56,86.18,149.69,401.43,Single-ply,SBD,M,
Boys,89.81,4,Carson Ashley,Springtown,86.18,151.95,83.91,147.42,383.29,Single-ply,SBD,M,
Boys,89.81,5,D'Lathian Young,Azle,83.91,124.74,102.06,147.42,374.21,Single-ply,SBD,M,
Boys,89.81,6,Kasen Thomas,Azle,86.64,117.93,74.84,138.35,331.12,Single-ply,SBD,M,
Boys,89.81,7,Joshua Guzman,Azle,83.01,122.47,83.91,115.67,322.05,Single-ply,SBD,M,
Boys,89.81,8,Gary Elliot,Azle,86.64,97.52,72.57,127.01,297.1,Single-ply,SBD,M,
Boys,89.81,DQ,Dallin Fabrizius,Springtown,86.64,138.35,,151.95,,Single-ply,SBD,M,
Boys,89.81,DQ,Breadan Love,Azle,86.18,,88.45,142.88,,Single-ply,SBD,M,
Boys,99.79,1,Courtney Pruitt,White Settlement Brewer,97.98,204.12,145.15,206.38,555.65,Single-ply,SBD,M,
Boys,99.79,2,Elijah Richardson,White Settlement Brewer,92.53,197.31,142.88,206.38,546.58,Single-ply,SBD,M,
Boys,99.79,3,Cambryn Holbrooks,Springtown,94.35,138.35,92.99,170.1,401.43,Single-ply,SBD,M,
Boys,99.79,4,Caden Haidusek,Springtown,95.71,147.42,83.91,151.95,383.29,Single-ply,SBD,M,
Boys,99.79,5,Zane Sudduth,Springtown,91.63,138.35,74.84,142.88,356.07,Single-ply,SBD,M,
Boys,99.79,6,Bonnie Hernandez,Springtown,93.89,131.54,83.91,129.27,344.73,Single-ply,SBD,M,
Boys,99.79,7,Jovanny Espinoza,Azle,90.72,102.06,83.91,129.27,315.25,Single-ply,SBD,M,
Boys,109.77,1,Eli Hansen,Springtown,102.06,190.51,102.06,185.97,478.54,Single-ply,SBD,M,
Boys,109.77,2,Aaron Bowen,Springtown,100.24,188.24,102.06,151.95,442.25,Single-ply,SBD,M,
Boys,109.77,3,Zach Barrett,Azle,105.23,170.1,124.74,124.74,419.57,Single-ply,SBD,M,
Boys,109.77,4,Trent Wade,Springtown,102.06,142.88,74.84,147.42,365.14,Single-ply,SBD,M,
Boys,109.77,5,Chase Sutton,Azle,107.05,117.93,86.18,158.76,362.87,Single-ply,SBD,M,
Boys,124.74,1,Robert Orr #1,White Settlement Brewer,116.57,249.48,158.76,224.53,632.76,Single-ply,SBD,M,
Boys,124.74,2,Rj Weatherd,White Settlement Brewer,116.57,195.04,120.2,201.85,517.1,Single-ply,SBD,M,
Boys,124.74,3,Xander Campbell,Springtown,111.13,183.7,79.38,158.76,421.84,Single-ply,SBD,M,
Boys,124.74,4,James Snyder,Springtown,117.48,154.22,83.91,158.76,396.89,Single-ply,SBD,M,
Boys,124.74,5,Morgan Mask,Azle,120.2,124.74,97.52,170.1,392.36,Single-ply,SBD,M,
Boys,124.74,6,Hunter Schultz,Azle,120.2,142.88,79.38,147.42,369.68,Single-ply,SBD,M,
Boys,124.74,DQ,Oliver Hobbs,Springtown,122.92,156.49,,174.63,,Single-ply,SBD,M,
Boys,139.71,1,Jeremy Morrow,Springtown,125.65,231.33,115.67,199.58,546.58,Single-ply,SBD,M,
Boys,139.71,2,Tacoma Redding,Azle,129.73,104.33,102.06,147.42,353.8,Single-ply,SBD,M,
Boys,139.71+,1,Cameron Hutcherson,White Settlement Brewer,158.76,260.82,145.15,217.72,623.69,Single-ply,SBD,M,
Boys,139.71+,2,Cody Brackeen,Springtown,140.16,201.85,142.88,226.8,571.53,Single-ply,SBD,M,
Boys,139.71+,3,Adrian Lewis,White Settlement Brewer,158.76,154.22,113.4,181.44,449.06,Single-ply,SBD,M,
Boys,139.71+,4,Breadan Crews,Azle,140.61,145.15,106.59,170.1,421.84,Single-ply,SBD,M,
