Division,WeightClassKg,Place,Name,Team,BodyweightKg,Best3SquatKg,Best3BenchKg,Best3DeadliftKg,TotalKg,Equipment,Event,Sex,BirthDate
Boys,51.71,1,David Haygood,Andrews,49.44,92.99,56.7,102.06,251.74,Single-ply,SBD,M,
Boys,59.87,1,Adriel Pacecho,Andrews,59.78,124.74,79.38,120.2,324.32,Single-ply,SBD,M,
Boys,67.13,1,Bradyn Eisenbarth,Midland Greenwood,64.32,156.49,102.06,142.88,401.43,Single-ply,SBD,M,
Boys,67.13,2,Caiden Cash,Andrews,65.77,124.74,79.38,154.22,358.34,Single-ply,SBD,M,
Boys,74.84,1,Brandon Salazar,Midland Greenwood,69.67,172.37,90.72,163.29,426.38,Single-ply,SBD,M,
Boys,74.84,2,Tyson Valenzuela,Andrews,74.21,142.88,74.84,181.44,399.16,Single-ply,SBD,M,
Boys,74.84,3,Leo Novogradic,Andrews,69.59,131.54,88.45,149.69,369.68,Single-ply,SBD,M,
Boys,74.84,4,Jack Hamby,Big Spring,70.67,142.88,74.84,151.95,369.68,Single-ply,SBD,M,
Boys,74.84,5,Ty Cochrane,Big Spring,74.84,120.2,83.91,142.88,347,Single-ply,SBD,M,
Boys,74.84,6,Makinly Espinoza,Andrews,71.12,115.67,81.65,131.54,328.85,Single-ply,SBD,M,
Boys,74.84,7,Alexavier Santibanez,Andrews,68.76,117.93,72.57,136.08,326.59,Single-ply,SBD,M,
Boys,74.84,8,Kolt Carr,Midland Greenwood,74.75,102.06,61.23,113.4,276.69,Single-ply,SBD,M,
Boys,82.1,1,Wyatt Olive,Midland Greenwood,80.74,226.8,113.4,195.04,535.24,Single-ply,SBD,M,
Boys,82.1,2,Gio Tarango,Midland Greenwood,75.3,219.99,124.74,172.37,517.1,Single-ply,SBD,M,
Boys,82.1,3,Caleb New,Big Spring,77.11,188.24,102.06,170.1,460.4,Single-ply,SBD,M,
Boys,82.1,4,Samuel Ramos,Andrews,80.56,131.54,79.38,127.01,337.93,Single-ply,SBD,M,
Boys,82.1,DQ,Leandro Ramirez,Midland Greenwood,80.74,117.93,,136.08,,Single-ply,SBD,M,
Boys,89.81,1,Orlando Baeza,Midland Greenwood,89.36,233.6,124.74,183.7,542.04,Single-ply,SBD,M,
Boys,89.81,2,Elijah Johnson,Big Spring,88.36,172.37,90.72,170.1,433.18,Single-ply,SBD,M,
Boys,89.81,3,Anthony Baeza,Andrews,89.09,122.47,81.65,147.42,351.53,Single-ply,SBD,M,
Boys,89.81,DQ,Jose Castillo,Andrews,88.36,,,,,Single-ply,SBD,M,
Boys,99.79,1,Gavin Garcia,Andrews,99.16,165.56,115.67,151.95,433.18,Single-ply,SBD,M,
Boys,99.79,2,Hector Lozoya,Andrews,95.25,161.03,102.06,165.56,428.64,Single-ply,SBD,M,
Boys,99.79,3,Simon Morales,Midland Greenwood,97.43,111.13,72.57,158.76,342.46,Single-ply,SBD,M,
Boys,99.79,4,Daniel García,Big Spring,94.26,108.86,68.04,136.08,312.98,Single-ply,SBD,M,
Boys,109.77,1,Garrett Dalton,Midland Greenwood,101.79,158.76,113.4,151.95,424.11,Single-ply,SBD,M,
Boys,124.74,DQ,Nickolye Ricterson,Andrews,111.49,154.22,122.47,,,Single-ply,SBD,M,
Boys,124.74,DQ,Stephen Casbeer,Midland Greenwood,113.58,111.13,,111.13,,Single-ply,SBD,M,
Boys,139.71,1,Gilberto Martinez,Andrews,136.17,167.83,111.13,163.29,442.25,Single-ply,SBD,M,
