Division,WeightClassKg,Place,Name,Team,BodyweightKg,Best3SquatKg,Best3BenchKg,Best3DeadliftKg,TotalKg,Equipment,Event,Sex,BirthDate
Boys,51.71,1,Emmanuel Garcia,Blooming Grove,51.53,115.67,74.84,120.2,310.71,Single-ply,SBD,M,
Boys,51.71,2,Giovanny Sanchez,Whitney,48.99,99.79,52.16,131.54,283.5,Single-ply,SBD,M,
Boys,51.71,3,Miguel Pineda,Hillsboro,43.64,90.72,49.9,111.13,251.74,Single-ply,SBD,M,
Boys,51.71,4,Dustin Baker,Itasca,41.46,56.7,,70.31,127.01,Single-ply,SD,M,
Boys,55.79,1,Corey Michalek,Axtell,55.16,136.08,86.18,154.22,376.48,Single-ply,SBD,M,
Boys,55.79,2,Humberto Gonzalez,Hillsboro,55.79,129.27,70.31,142.88,342.46,Single-ply,SBD,M,
Boys,55.79,3,Nick Munoz,West,54.7,117.93,70.31,120.2,308.44,Single-ply,SBD,M,
Boys,55.79,4,Aidan Valdez,Rosebud-Lott,52.8,102.06,61.23,129.27,292.57,Single-ply,SBD,M,
Boys,55.79,5,Troy Arlitt,Axtell,53.52,92.99,61.23,113.4,267.62,Single-ply,SBD,M,
Boys,55.79,6,Tim Kruger,Rosebud-Lott,52.53,95.25,47.63,104.33,247.21,Single-ply,SBD,M,
Boys,55.79,7,Alejandro Rodriguez Jr,Meridian,51.8,97.52,43.09,102.06,242.67,Single-ply,SBD,M,
Boys,55.79,8,Wyatt Coker,Rosebud-Lott,52.34,108.86,,115.67,224.53,Single-ply,SD,M,
Boys,59.87,1,Caidn Kocian,West,59.6,190.51,97.52,192.78,480.81,Single-ply,SBD,M,
Boys,59.87,2,Dustin Chautin,Maypearl,59.78,142.88,92.99,149.69,385.55,Single-ply,SBD,M,
Boys,59.87,3,John McDowell,Whitney,59.87,113.4,70.31,151.95,335.66,Single-ply,SBD,M,
Boys,59.87,4,Jesse Cano,Rio Vista,58.6,115.67,86.18,124.74,326.59,Single-ply,SBD,M,
Boys,59.87,5,Nik Caproni,Rosebud-Lott,59.24,111.13,74.84,124.74,310.71,Single-ply,SBD,M,
Boys,59.87,6,Cody Teasley,Grandview,58.97,111.13,65.77,117.93,294.84,Single-ply,SBD,M,
Boys,59.87,7,Ace Ashford,Rosebud-Lott,58.97,113.4,52.16,127.01,292.57,Single-ply,SBD,M,
Boys,67.13,1,Leonardo Lopez,Hillsboro,62.23,172.37,102.06,183.7,458.13,Single-ply,SBD,M,
Boys,67.13,2,Carlos Saucedo,Rosebud-Lott,66.68,156.49,122.47,158.76,437.72,Single-ply,SBD,M,
Boys,67.13,3,Anthony Berrones,Grandview,67.04,151.95,99.79,170.1,421.84,Single-ply,SBD,M,
Boys,67.13,4,Jordan Davis,Axtell,67.13,161.03,90.72,161.03,412.77,Single-ply,SBD,M,
Boys,67.13,5,Cannon Cook,West,64.5,145.15,79.38,158.76,383.29,Single-ply,SBD,M,
Boys,67.13,6,Joey Enderle,Blooming Grove,66.59,147.42,83.91,142.88,374.21,Single-ply,SBD,M,
Boys,67.13,7,Brayden Wehmeyer,Meridian,65.77,136.08,74.84,136.08,347,Single-ply,SBD,M,
Boys,67.13,8,Alejandro Sanchez,Hillsboro,65.05,124.74,77.11,142.88,344.73,Single-ply,SBD,M,
Boys,67.13,9,Joshua Lovett,Blooming Grove,63.05,124.74,70.31,142.88,337.93,Single-ply,SBD,M,
Boys,67.13,10,Garrett Kwast,Axtell,60.69,136.08,63.5,136.08,335.66,Single-ply,SBD,M,
Boys,67.13,11,Kato Mattair,Rosebud-Lott,59.96,115.67,68.04,127.01,310.71,Single-ply,SBD,M,
Boys,67.13,12,Robert Ford,Itasca,66.95,133.81,,147.42,281.23,Single-ply,SD,M,
Boys,67.13,13,Ryan Patterson,Rio Vista,60.15,102.06,74.84,99.79,276.69,Single-ply,SBD,M,
Boys,67.13,14,Michael Flores,Itasca,61.05,111.13,61.23,102.06,274.42,Single-ply,SBD,M,
Boys,67.13,15,Jarin VanLandingham,Whitney,60.51,86.18,61.23,124.74,272.16,Single-ply,SBD,M,
Boys,67.13,16,Landyn Ainsworth,Grandview,62.23,113.4,63.5,92.99,269.89,Single-ply,SBD,M,
Boys,67.13,17,Jon Winchester,Itasca,63.68,124.74,,140.61,265.35,Single-ply,SD,M,
Boys,67.13,18,Colson Mayfield,Maypearl,65.05,88.45,61.23,106.59,256.28,Single-ply,SBD,M,
Boys,67.13,19,Braden Wohleb,Whitney,60.06,,65.77,120.2,185.97,Single-ply,BD,M,
Boys,67.13,20,Nate Riddell,Itasca,66.04,,,154.22,154.22,Single-ply,D,M,
Boys,67.13,DQ,Hayden Jensen,Whitney,67.13,165.56,97.52,,,Single-ply,SBD,M,
Boys,74.84,1,Evan Stewart,West,73.94,195.04,127.01,179.17,501.22,Single-ply,SBD,M,
Boys,74.84,2,Dustan Bowers,Meridian,70.94,176.9,88.45,188.24,453.59,Single-ply,SBD,M,
Boys,74.84,3,Dalton Wooten,Whitney,69.22,167.83,102.06,179.17,449.06,Single-ply,SBD,M,
Boys,74.84,4,Jason Allison,Rosebud-Lott,72.3,163.29,95.25,176.9,435.45,Single-ply,SBD,M,
Boys,74.84,5,Aidan Votaw,Maypearl,74.3,147.42,97.52,154.22,399.16,Single-ply,SBD,M,
Boys,74.84,6,Ryan Holliday,Maypearl,69.76,151.95,86.18,158.76,396.89,Single-ply,SBD,M,
Boys,74.84,7,Coy Klish,West,68.76,142.88,95.25,156.49,394.63,Single-ply,SBD,M,
Boys,74.84,8,Austin Pogue,Meridian,71.49,145.15,72.57,142.88,360.61,Single-ply,SBD,M,
Boys,74.84,9,Kevin Tatum,Axtell,69.94,124.74,79.38,145.15,349.27,Single-ply,SBD,M,
Boys,74.84,10,Luke Smith,Meridian,70.22,120.2,83.91,142.88,347,Single-ply,SBD,M,
Boys,74.84,11,Nate Green,West,70.4,129.27,72.57,136.08,337.93,Single-ply,SBD,M,
Boys,74.84,12,Ben McGlauflin,Maypearl,70.67,117.93,70.31,127.01,315.25,Single-ply,SBD,M,
Boys,74.84,13,Tanner McAninch,Axtell,72.21,102.06,79.38,117.93,299.37,Single-ply,SBD,M,
Boys,74.84,14,Steven McClanahan,Rio Vista,68.95,90.72,79.38,90.72,260.82,Single-ply,SBD,M,
Boys,74.84,DQ,David Torres #8,Itasca,68.4,,,149.69,,Single-ply,SBD,M,
Boys,82.1,1,Ricardo Martinez,Hillsboro,76.29,190.51,124.74,215.46,530.7,Single-ply,SBD,M,
Boys,82.1,2,Jorge Soria,Hillsboro,78.65,183.7,129.27,188.24,501.22,Single-ply,SBD,M,
Boys,82.1,3,Tyler Jaster,West,75.75,190.51,106.59,195.04,492.15,Single-ply,SBD,M,
Boys,82.1,4,Braden Price,Grandview,75.75,174.63,115.67,170.1,460.4,Single-ply,SBD,M,
Boys,82.1,5,Ross Hudson,Grandview,75.66,156.49,113.4,174.63,444.52,Single-ply,SBD,M,
Boys,82.1,6,Jesse Saldana,Wortham,81.74,161.03,102.06,174.63,437.72,Single-ply,SBD,M,
Boys,82.1,7,Trevor McCombie,Rio Vista,80.47,156.49,120.2,154.22,430.91,Single-ply,SBD,M,
Boys,82.1,8,Jacob Trejo,Hillsboro,82.1,161.03,102.06,161.03,424.11,Single-ply,SBD,M,
Boys,82.1,9,Renfro Steele,Maypearl,81.19,147.42,97.52,176.9,421.84,Single-ply,SBD,M,
Boys,82.1,10,Jesus Luna,Italy,76.02,149.69,92.99,158.76,401.43,Single-ply,SBD,M,
Boys,82.1,11,Gauge Chandler,Meridian,76.93,120.2,68.04,129.27,317.51,Single-ply,SBD,M,
Boys,82.1,12,Jonah Utton,Meridian,79.83,111.13,74.84,131.54,317.51,Single-ply,SBD,M,
Boys,82.1,13,Shayne Adams,West,79.2,108.86,68.04,127.01,303.91,Single-ply,SBD,M,
Boys,82.1,14,Tj Huggins,Axtell,75.39,102.06,77.11,102.06,281.23,Single-ply,SBD,M,
Boys,82.1,15,Alex Andrade,Itasca,76.11,,,170.1,170.1,Single-ply,D,M,
Boys,82.1,DQ,Kegan Hurford,Blooming Grove,78.11,142.88,83.91,,,Single-ply,SBD,M,
Boys,89.81,1,Josh Heath,West,87.82,172.37,106.59,183.7,462.66,Single-ply,SBD,M,
Boys,89.81,2,Alan Beltran,Hillsboro,84.82,172.37,113.4,174.63,460.4,Single-ply,SBD,M,
Boys,89.81,3,Alvin Williams,Rosebud-Lott,85.18,136.08,95.25,161.03,392.36,Single-ply,SBD,M,
Boys,89.81,4,Adam Hart,Axtell,87.36,151.95,97.52,142.88,392.36,Single-ply,SBD,M,
Boys,89.81,5,Chris Chasteen,Wortham,82.64,142.88,79.38,142.88,365.14,Single-ply,SBD,M,
Boys,89.81,6,Brett Holloman,West,82.28,142.88,88.45,131.54,362.87,Single-ply,SBD,M,
Boys,89.81,7,Aiden Molina,Wortham,86.18,115.67,65.77,120.2,301.64,Single-ply,SBD,M,
Boys,99.79,1,Daniel Rodriguez #20,Rosebud-Lott,96.16,224.53,129.27,213.19,566.99,Single-ply,SBD,M,
Boys,99.79,2,Dylan Peek,Maypearl,93.44,185.97,136.08,213.19,535.24,Single-ply,SBD,M,
Boys,99.79,3,Kelvin Eagans,Hillsboro,92.08,190.51,111.13,231.33,532.97,Single-ply,SBD,M,
Boys,99.79,4,Emmanuel Lugo,Grandview,90.26,204.12,113.4,188.24,505.76,Single-ply,SBD,M,
Boys,99.79,5,Brayden Canada,Grandview,98.43,165.56,104.33,190.51,460.4,Single-ply,SBD,M,
Boys,99.79,6,James Rissmiller,Wortham,90.08,170.1,108.86,174.63,453.59,Single-ply,SBD,M,
Boys,99.79,7,Jocsan Acosta,Hillsboro,92.08,174.63,113.4,165.56,453.59,Single-ply,SBD,M,
Boys,99.79,8,Juan Hernandez,Itasca,97.52,174.63,88.45,174.63,437.72,Single-ply,SBD,M,
Boys,99.79,9,Vann Minor,Meridian,94.35,142.88,79.38,158.76,381.02,Single-ply,SBD,M,
Boys,99.79,10,John Nesselroad,Whitney,93.44,117.93,79.38,147.42,344.73,Single-ply,SBD,M,
Boys,99.79,11,Luke Wilson,Rio Vista,96.16,120.2,83.91,127.01,331.12,Single-ply,SBD,M,
Boys,109.77,1,David Mirafuentes,Blooming Grove,105.69,249.48,142.88,210.92,603.28,Single-ply,SBD,M,
Boys,109.77,2,Xavier Navarro,Grandview,104.78,242.67,120.2,217.72,580.6,Single-ply,SBD,M,
Boys,109.77,3,Elijah Flores,Rosebud-Lott,108.86,201.85,133.81,185.97,521.63,Single-ply,SBD,M,
Boys,109.77,4,Nick Holt,Rio Vista,109.32,195.04,117.93,195.04,508.02,Single-ply,SBD,M,
Boys,109.77,5,Nolan Kahlig,Rosebud-Lott,107.95,183.7,133.81,181.44,498.95,Single-ply,SBD,M,
Boys,109.77,6,Jeremiah Gutierrez,Italy,102.06,188.24,92.99,183.7,464.93,Single-ply,SBD,M,
Boys,109.77,7,Bryce Castillo,Grandview,104.33,174.63,104.33,161.03,439.98,Single-ply,SBD,M,
Boys,109.77,8,Mark Burgess,Maypearl,106.14,142.88,102.06,163.29,408.23,Single-ply,SBD,M,
Boys,109.77,DQ,Lane Covington,Blooming Grove,107.5,151.95,102.06,147.42,,Single-ply,SBD,M,
Boys,124.74,1,Caleb Bayer,Grandview,117.03,240.4,165.56,226.8,632.76,Single-ply,SBD,M,
Boys,124.74,2,Esteban Ramirez,Whitney,112.94,206.38,106.59,208.65,521.63,Single-ply,SBD,M,
Boys,124.74,3,David Klander,West,114.76,192.78,115.67,185.97,494.42,Single-ply,SBD,M,
Boys,124.74,4,Noah Andrews,Rio Vista,113.85,204.12,124.74,151.95,480.81,Single-ply,SBD,M,
Boys,124.74,5,John Wyatt #2,Meridian,116.12,183.7,102.06,183.7,469.47,Single-ply,SBD,M,
Boys,124.74,6,Andy Cumins,Rio Vista,114.76,181.44,113.4,165.56,460.4,Single-ply,SBD,M,
Boys,124.74,7,Caiden Rogers,Whitney,113.85,142.88,108.86,183.7,435.45,Single-ply,SBD,M,
Boys,124.74,8,Braden Moore,Axtell,113.85,154.22,81.65,188.24,424.11,Single-ply,SBD,M,
Boys,124.74,9,John Gorrell,Maypearl,124.28,149.69,102.06,170.1,421.84,Single-ply,SBD,M,
Boys,124.74,10,Talon Poulin,Hillsboro,118.84,156.49,106.59,156.49,419.57,Single-ply,SBD,M,
Boys,124.74,11,Krew Patton,Maypearl,117.93,156.49,102.06,131.54,390.09,Single-ply,SBD,M,
Boys,124.74,12,Ethan Crandell,Rio Vista,120.66,142.88,102.06,136.08,381.02,Single-ply,SBD,M,
Boys,139.71,1,Easton Fulton,Rosebud-Lott,135.17,251.74,154.22,249.48,655.44,Single-ply,SBD,M,
Boys,139.71,2,Bryce Ballard,Italy,131.09,249.48,149.69,204.12,603.28,Single-ply,SBD,M,
Boys,139.71,3,Fabian Silvas,Hillsboro,131.09,226.8,138.35,185.97,551.11,Single-ply,SBD,M,
Boys,139.71,4,Brock Klander,West,133.36,208.65,129.27,181.44,519.36,Single-ply,SBD,M,
