Division,WeightClassKg,Place,Name,Team,BodyweightKg,Best3SquatKg,Best3BenchKg,Best3DeadliftKg,TotalKg,Equipment,Event,Sex,BirthDate
Boys,51.71,1,Jaime Rios #2,Big Lake Reagan County,51.17,158.76,86.18,165.56,410.5,Single-ply,SBD,M,
Boys,51.71,2,Lane Smith,Ozona,51.17,142.88,83.91,147.42,374.21,Single-ply,SBD,M,
Boys,51.71,3,Isaiah Reyes,Lockney,51.71,140.61,86.18,142.88,369.68,Single-ply,SBD,M,
Boys,51.71,4,Nathan Flores,Friona,51.35,131.54,72.57,142.88,347,Single-ply,SBD,M,
Boys,51.71,5,Damion Gonzales,Lockney,46.45,145.15,63.5,108.86,317.51,Single-ply,SBD,M,
Boys,51.71,6,David Perez,Tahoka,48.63,120.2,61.23,136.08,317.51,Single-ply,SBD,M,
Boys,51.71,7,Eric Broussard,Tuscola Jim Ned,49.26,113.4,77.11,117.93,308.44,Single-ply,SBD,M,
Boys,51.71,8,Boyzz Guzman,Forsan,49.62,113.4,65.77,129.27,308.44,Single-ply,SBD,M,
Boys,51.71,9,Tyler Waggoner,Stanton,51.26,124.74,63.5,113.4,301.64,Single-ply,SBD,M,
Boys,51.71,10,Payton Rhodes,Hart,51.44,102.06,72.57,122.47,297.1,Single-ply,SBD,M,
Boys,51.71,11,Carson Ellison,Miles,50.71,113.4,65.77,102.06,281.23,Single-ply,SBD,M,
Boys,51.71,DQ,Juan Trejo,Friona,51.71,204.12,,,,Single-ply,SBD,M,
Boys,55.79,1,Brennan Riker,Post,55.43,181.44,97.52,165.56,444.52,Single-ply,SBD,M,
Boys,55.79,2,Zaniel Florez,Kermit,54.25,161.03,81.65,174.63,417.3,Single-ply,SBD,M,
Boys,55.79,3,Sebastian Rios,Ralls,55.79,136.08,90.72,170.1,396.89,Single-ply,SBD,M,
Boys,55.79,4,Radek Spatz,Miles,54.88,158.76,68.04,158.76,385.55,Single-ply,SBD,M,
Boys,55.79,5,Colton Engle,Slaton,55.07,133.81,83.91,158.76,376.48,Single-ply,SBD,M,
Boys,55.79,6,Gio Ponce,Friona,55.07,140.61,86.18,147.42,374.21,Single-ply,SBD,M,
Boys,55.79,7,Tommy Purcell,Christoval,54.79,133.81,79.38,158.76,371.95,Single-ply,SBD,M,
Boys,55.79,8,Toby Crabb,Slaton,55.79,129.27,97.52,127.01,353.8,Single-ply,SBD,M,
Boys,55.79,9,Cougar Jetton,San Angelo Grape Creek,55.79,145.15,72.57,127.01,344.73,Single-ply,SBD,M,
Boys,55.79,10,Dillon Bruington,Floydada,55.79,129.27,74.84,138.35,342.46,Single-ply,SBD,M,
Boys,55.79,11,Dylan Garza,Miles,53.71,113.4,65.77,136.08,315.25,Single-ply,SBD,M,
Boys,55.79,DQ,Zach Ainsworth,Junction,55.79,131.54,,,,Single-ply,SBD,M,
Boys,55.79,NS,Oliver Cervantes,Crane,,,,,,Single-ply,SBD,M,
Boys,59.87,1,Christian Teichelman,Childress,59.69,217.72,127.01,222.26,566.99,Single-ply,SBD,M,
Boys,59.87,2,Brian Lopez,Big Lake Reagan County,59.6,183.7,106.59,172.37,462.66,Single-ply,SBD,M,
Boys,59.87,3,Aidon Olivas,Sundown,59.42,176.9,95.25,183.7,455.86,Single-ply,SBD,M,
Boys,59.87,4,Tristen Thompson,Merkel,58.97,176.9,102.06,165.56,444.52,Single-ply,SBD,M,
Boys,59.87,5,Sergio Gonzalez,Big Lake Reagan County,59.24,163.29,102.06,174.63,439.98,Single-ply,SBD,M,
Boys,59.87,6,Derek Barron,Muleshoe,59.78,183.7,83.91,161.03,428.64,Single-ply,SBD,M,
Boys,59.87,7,Dio Ponce,Friona,57.97,154.22,102.06,163.29,419.57,Single-ply,SBD,M,
Boys,59.87,8,Carlos Perez #3,Sundown,58.69,147.42,83.91,172.37,403.7,Single-ply,SBD,M,
Boys,59.87,9,Josiah Rodriguez,Meadow,59.33,147.42,81.65,170.1,399.16,Single-ply,SBD,M,
Boys,59.87,10,Aidan Villanueva #1,Sonora,59.78,156.49,81.65,158.76,396.89,Single-ply,SBD,M,
Boys,59.87,11,Juan Ruiz,Sonora,59.69,142.88,74.84,165.56,383.29,Single-ply,SBD,M,
Boys,59.87,12,Brayden Sanders,Sundown,57.88,129.27,72.57,154.22,356.07,Single-ply,SBD,M,
Boys,67.13,1,Josh Chavarin,Slaton,66.04,204.12,111.13,210.92,526.17,Single-ply,SBD,M,
Boys,67.13,2,Jeremiah Diaz,Friona,66.04,222.26,113.4,181.44,517.1,Single-ply,SBD,M,
Boys,67.13,3,Pablo Mendoza,Sundown,63.32,176.9,108.86,213.19,498.95,Single-ply,SBD,M,
Boys,67.13,4,Eddie Betencourt,Slaton,66.86,176.9,113.4,204.12,494.42,Single-ply,SBD,M,
Boys,67.13,5,Xavier Garcia,Ralls,67.13,197.31,102.06,195.04,494.42,Single-ply,SBD,M,
Boys,67.13,6,Jose Dominguez,Ozona,67.04,204.12,92.99,192.78,489.88,Single-ply,SBD,M,
Boys,67.13,7,Landen Simmons,Slaton,65.14,190.51,117.93,179.17,487.61,Single-ply,SBD,M,
Boys,67.13,8,Ben Flores,Abernathy,66.68,183.7,97.52,204.12,485.34,Single-ply,SBD,M,
Boys,67.13,9,Daniel Estrada,New Home,65.95,181.44,102.06,181.44,464.93,Single-ply,SBD,M,
Boys,67.13,DQ,Colton House,Junction,66.95,206.38,,,,Single-ply,SBD,M,
Boys,67.13,DQ,Canaan Charleston,Clyde,62.78,215.46,,,,Single-ply,SBD,M,
Boys,67.13,DQ,Bryson Jones,Ralls,66.41,183.7,92.99,,,Single-ply,SBD,M,
Boys,74.84,1,Alex Carmona,Floydada,73.21,244.94,142.88,208.65,596.47,Single-ply,SBD,M,
Boys,74.84,2,Alexander Herevia,Tahoka,73.48,222.26,142.88,219.99,585.13,Single-ply,SBD,M,
Boys,74.84,3,David Guerrero,Big Lake Reagan County,71.85,256.28,127.01,190.51,573.79,Single-ply,SBD,M,
Boys,74.84,4,Payton Polk,Christoval,72.85,201.85,111.13,215.46,528.44,Single-ply,SBD,M,
Boys,74.84,5,Riley Tiemann,Vega,70.94,195.04,102.06,229.06,526.17,Single-ply,SBD,M,
Boys,74.84,6,Malik Hamilton,Tahoka,71.3,206.38,104.33,215.46,526.17,Single-ply,SBD,M,
Boys,74.84,7,Cade Conway,Sundown,73.57,195.04,129.27,199.58,523.9,Single-ply,SBD,M,
Boys,74.84,8,Richard Hoffman,Clyde,74.84,215.46,113.4,190.51,519.36,Single-ply,SBD,M,
Boys,74.84,9,Brady Tiemann,Vega,70.22,192.78,111.13,197.31,501.22,Single-ply,SBD,M,
Boys,74.84,10,Jesse Pete,Stamford,71.21,174.63,117.93,199.58,492.15,Single-ply,SBD,M,
Boys,74.84,DQ,Chris Rader,Slaton,70.49,190.51,,,,Single-ply,SBD,M,
Boys,74.84,DQ,William Collinsworth,Hawley,74.84,,,,,Single-ply,SBD,M,
Boys,82.1,1,Blake Hulse,Sundown,80.01,276.69,154.22,235.87,666.78,Single-ply,SBD,M,
Boys,82.1,2,Kingsley Rodriguez,Seagraves,81.28,242.67,145.15,274.42,662.24,Single-ply,SBD,M,
Boys,82.1,3,Kaleb Salazar,Ralls,80.83,231.33,138.35,242.67,612.35,Single-ply,SBD,M,
Boys,82.1,4,EJ Hernandez,Sundown,80.65,219.99,147.42,224.53,591.94,Single-ply,SBD,M,
Boys,82.1,5,Juan Saucedo,Big Lake Reagan County,81.47,235.87,145.15,199.58,580.6,Single-ply,SBD,M,
Boys,82.1,6,Kevin Garcia,Sundown,79.83,206.38,136.08,219.99,562.45,Single-ply,SBD,M,
Boys,82.1,7,Christian DeLuna,Big Lake Reagan County,81.1,224.53,138.35,188.24,551.11,Single-ply,SBD,M,
Boys,82.1,8,Sergio Salinas,Ralls,77.75,197.31,115.67,215.46,528.44,Single-ply,SBD,M,
Boys,82.1,9,Alex Natera,Alpine,78.38,185.97,120.2,217.72,523.9,Single-ply,SBD,M,
Boys,82.1,DQ,Aiden Fuentes,Ozona,79.74,238.14,,,,Single-ply,SBD,M,
Boys,82.1,NS,Silas Urrutia,Lockney,,,,,,Single-ply,SBD,M,
Boys,82.1,DQ,Sergio Guerrero,Olton,81.92,,,,,Single-ply,SBD,M,
Boys,89.81,1,Donovan Gomez,Clyde,88.18,254.01,165.56,240.4,659.98,Single-ply,SBD,M,
Boys,89.81,2,Aaron Young,Lamesa Klondike,88.99,240.4,149.69,226.8,616.89,Single-ply,SBD,M,
Boys,89.81,3,Nicodemus Ayala,Tahoka,88.9,238.14,151.95,213.19,603.28,Single-ply,SBD,M,
Boys,89.81,4,Joe Barrera,Tulia,87.54,240.4,120.2,226.8,587.4,Single-ply,SBD,M,
Boys,89.81,5,Jonathan Golightly,Sundown,87.72,226.8,147.42,201.85,576.06,Single-ply,SBD,M,
Boys,89.81,6,Diego Hernandez,Sundown,84.55,222.26,136.08,210.92,569.26,Single-ply,SBD,M,
Boys,89.81,7,Issahia Valenzuela,Big Lake Reagan County,88.9,224.53,111.13,226.8,562.45,Single-ply,SBD,M,
Boys,89.81,8,Tj Payne,Slaton,86.64,238.14,124.74,195.04,557.92,Single-ply,SBD,M,
Boys,89.81,9,Gavin Richardson,Sundown,89.81,215.46,122.47,219.99,557.92,Single-ply,SBD,M,
Boys,89.81,DQ,Misael Castaneda,Whiteface,87.91,226.8,142.88,,,Single-ply,SBD,M,
Boys,89.81,DQ,Colton Marshall,Hawley,89.54,226.8,,,,Single-ply,SBD,M,
Boys,89.81,NS,Keanu Villarreal,Lockney,,,,,,Single-ply,SBD,M,
Boys,99.79,1,Adam Velasco,Denver City,96.25,278.96,188.24,222.26,689.46,Single-ply,SBD,M,
Boys,99.79,2,Arthur Murillo,Tuscola Jim Ned,93.35,258.55,151.95,242.67,653.17,Single-ply,SBD,M,
Boys,99.79,3,Paul Walker #2,Crane,97.43,274.42,136.08,235.87,646.37,Single-ply,SBD,M,
Boys,99.79,4,Mikial Burrola,Kermit,93.98,233.6,149.69,208.65,591.94,Single-ply,SBD,M,
Boys,99.79,5,Cole Boren,Post,98.61,238.14,149.69,195.04,582.87,Single-ply,SBD,M,
Boys,99.79,6,Zack Schneider,Coahoma,98.25,215.46,138.35,215.46,569.26,Single-ply,SBD,M,
Boys,99.79,7,Nathaniel Whitmore,Forsan,98.79,219.99,133.81,206.38,560.19,Single-ply,SBD,M,
Boys,99.79,8,Zakary Gragson,Sundown,91.44,210.92,129.27,201.85,542.04,Single-ply,SBD,M,
Boys,99.79,DQ,Elias Martinez,Ralls,96.62,238.14,,,,Single-ply,SBD,M,
Boys,99.79,DQ,Adam Keidl,Clyde,93.71,217.72,138.35,,,Single-ply,SBD,M,
Boys,99.79,DQ,Phillip McDowell,Clyde,96.52,247.21,158.76,,,Single-ply,SBD,M,
Boys,99.79,NS,Damian Pena,Denver City,,,,,,Single-ply,SBD,M,
Boys,109.77,1,Gabriel Chavez,Olton,106.41,317.51,174.63,254.01,746.16,Single-ply,SBD,M,
Boys,109.77,2,Colton Strickland,Hawley,102.33,249.48,145.15,278.96,673.58,Single-ply,SBD,M,
Boys,109.77,3,Ashton Smith,Stanton,104.14,272.16,158.76,242.67,673.58,Single-ply,SBD,M,
Boys,109.77,4,Austin Adkins,Baird,107.59,226.8,163.29,272.16,662.24,Single-ply,SBD,M,
Boys,109.77,5,Alan Mendoza,Seagraves,109.13,265.35,151.95,235.87,653.17,Single-ply,SBD,M,
Boys,109.77,6,Devon Butler,Crane,107.05,260.82,161.03,204.12,625.96,Single-ply,SBD,M,
Boys,109.77,7,Andy Casias,Abernathy,103.87,249.48,138.35,229.06,616.89,Single-ply,SBD,M,
Boys,109.77,8,Juan Carlos Pedroza,Olton,108.41,222.26,149.69,238.14,610.08,Single-ply,SBD,M,
Boys,109.77,9,Andy Castillo,Sundown,104.87,240.4,120.2,240.4,601.01,Single-ply,SBD,M,
Boys,109.77,DQ,Micheal Adamson,Lefors,106.32,263.08,136.08,,,Single-ply,SBD,M,
Boys,109.77,DQ,Chris Correa,Brownfield,108.77,,,,,Single-ply,SBD,M,
Boys,124.74,1,Bo Thompson,Hawley,121.65,272.16,238.14,249.48,759.77,Single-ply,SBD,M,
Boys,124.74,2,Cody Mays,Vega,120.2,267.62,163.29,272.16,703.07,Single-ply,SBD,M,
Boys,124.74,3,Darius Pando,Kermit,116.85,278.96,154.22,247.21,680.39,Single-ply,SBD,M,
Boys,124.74,4,Dakota Nichols,Hawley,122.11,272.16,192.78,204.12,669.05,Single-ply,SBD,M,
Boys,124.74,5,Miguel Lara,Lockney,118.12,278.96,154.22,222.26,655.44,Single-ply,SBD,M,
Boys,124.74,6,Taye Perez,Post,124.19,240.4,163.29,244.94,648.64,Single-ply,SBD,M,
Boys,124.74,7,Gerry Salazar,McCamey,117.03,249.48,145.15,226.8,621.42,Single-ply,SBD,M,
Boys,124.74,8,Jayson Pagan,McCamey,114.31,258.55,138.35,217.72,614.62,Single-ply,SBD,M,
Boys,124.74,9,Chris Jackson #5,Post,118.39,238.14,149.69,226.8,614.62,Single-ply,SBD,M,
Boys,124.74,10,Thad Hazlewood,Hawley,123.65,226.8,158.76,206.38,591.94,Single-ply,SBD,M,
Boys,124.74,11,Kobe Cervantes,Coahoma,113.13,226.8,133.81,208.65,569.26,Single-ply,SBD,M,
Boys,124.74,DQ,Jesus Guerra,Sudan,118.48,,,,,Single-ply,SBD,M,
Boys,124.74+,1,Kolter Willeford,Hawley,129.64,362.87,192.78,249.48,805.13,Single-ply,SBD,M,
Boys,124.74+,2,Hunter Bolton,Ropesville Ropes,132.45,306.17,170.1,256.28,732.55,Single-ply,SBD,M,
Boys,124.74+,3,Emiliano Hernandez,Eldorado,139.62,258.55,174.63,292.57,725.75,Single-ply,SBD,M,
Boys,124.74+,4,Chris Torres,Crosbyton,169.82,340.19,151.95,192.78,684.92,Single-ply,SBD,M,
Boys,124.74+,5,Keano Perez,Ozona,137.89,267.62,145.15,235.87,648.64,Single-ply,SBD,M,
Boys,124.74+,6,Nico Rodriguez,Sundown,127.73,249.48,165.56,208.65,623.69,Single-ply,SBD,M,
Boys,124.74+,7,Javen Diaz,Post,137.44,240.4,145.15,215.46,601.01,Single-ply,SBD,M,
Boys,124.74+,8,Jeryd Fain,Coleman,131.45,254.01,154.22,181.44,589.67,Single-ply,SBD,M,
Boys,124.74+,9,Sean Castillo,Brownfield,181.16,204.12,142.88,199.58,546.58,Single-ply,SBD,M,
Boys,124.74+,10,Vincent Vaquera,Clarendon,134.72,204.12,122.47,213.19,539.77,Single-ply,SBD,M,
Boys,124.74+,DQ,Stedham Buchanan,Clyde,126.46,222.26,174.63,,,Single-ply,SBD,M,
Boys,124.74+,DQ,Wesley Estridge,Albany,146.78,322.05,,,,Single-ply,SBD,M,
Boys,124.74+,NS,Jake Patterson,Forsan,,,,,,Single-ply,SBD,M,
