Division,WeightClassKg,Place,Name,Team,BodyweightKg,Best3SquatKg,Best3BenchKg,Best3DeadliftKg,TotalKg,Equipment,Event,Sex,BirthDate
Boys,51.71,1,Braidan Johnson,Baytown Goose Creek Memorial,48.99,83.91,61.23,88.45,233.6,Single-ply,SBD,M,
Boys,55.79,1,Emmanuel Batongmalaki,Baytown Lee,53.07,111.13,72.57,156.49,340.19,Single-ply,SBD,M,
Boys,59.87,1,Santiago Hoyos Carmona,Baytown Sterling,59.42,115.67,81.65,147.42,344.73,Single-ply,SBD,M,
Boys,59.87,2,Landyn Harmon,Baytown Lee,57.15,117.93,63.5,131.54,312.98,Single-ply,SBD,M,
Boys,59.87,3,Michael Roberson,Baytown Goose Creek Memorial,58.97,90.72,56.7,142.88,290.3,Single-ply,SBD,M,
Boys,59.87,4,Antonio Correa,Baytown Lee,56.25,106.59,56.7,122.47,285.76,Single-ply,SBD,M,
Boys,59.87,DQ,Arrin Lewis,Baytown Lee,59.87,,,,,Single-ply,SBD,M,
Boys,67.13,1,Aiden Mongiello,Baytown Sterling,67.13,124.74,83.91,158.76,367.41,Single-ply,SBD,M,
Boys,67.13,2,Dwain King,Baytown Lee,67.13,104.33,92.99,142.88,340.19,Single-ply,SBD,M,
Boys,67.13,3,David Willey,Baytown Goose Creek Memorial,63.5,111.13,83.91,124.74,319.78,Single-ply,SBD,M,
Boys,67.13,4,Mathew Gonzalez,Baytown Sterling,63.96,106.59,74.84,122.47,303.91,Single-ply,SBD,M,
Boys,67.13,5,Jesus Pineda,Baytown Sterling,66.22,102.06,68.04,124.74,294.84,Single-ply,SBD,M,
Boys,67.13,6,Nathan Johnson,Baytown Goose Creek Memorial,60.33,90.72,68.04,124.74,283.5,Single-ply,SBD,M,
Boys,67.13,7,Chris Castillo,Baytown Goose Creek Memorial,61.69,102.06,61.23,113.4,276.69,Single-ply,SBD,M,
Boys,67.13,8,Thomas Winters,Baytown Goose Creek Memorial,63.5,88.45,61.23,102.06,251.74,Single-ply,SBD,M,
Boys,67.13,DQ,Ja'Corey Boston,Baytown Lee,63.5,,,,,Single-ply,SBD,M,
Boys,67.13,DQ,Clinton Kemper,Baytown Lee,63.5,,,,,Single-ply,SBD,M,
Boys,67.13,DQ,Wilford Pitre,Baytown Lee,67.13,,,,,Single-ply,SBD,M,
Boys,67.13,DQ,Brian White #6,Baytown Lee,65.77,,,,,Single-ply,SBD,M,
Boys,67.13,DQ,Josiah Joseph,Baytown Lee,65.77,,,,,Single-ply,SBD,M,
Boys,74.84,1,Owin Romero,Baytown Lee,72.57,151.95,102.06,176.9,430.91,Single-ply,SBD,M,
Boys,74.84,2,Wanyae Barnes,Baytown Lee,68.04,154.22,88.45,183.7,426.38,Single-ply,SBD,M,
Boys,74.84,3,Edsonn Gonzalez,Baytown Lee,70.76,133.81,77.11,170.1,381.02,Single-ply,SBD,M,
Boys,74.84,4,Kofi Cooper,Baytown Lee,72.57,136.08,81.65,158.76,376.48,Single-ply,SBD,M,
Boys,74.84,5,Angel Martinez #13,Baytown Sterling,69.85,113.4,95.25,145.15,353.8,Single-ply,SBD,M,
Boys,74.84,6,Nicholas Carmon,Baytown Lee,73.94,102.06,97.52,149.69,349.27,Single-ply,SBD,M,
Boys,74.84,7,Denzel Taylor,Baytown Lee,68.04,122.47,68.04,145.15,335.66,Single-ply,SBD,M,
Boys,74.84,8,Nicholas J Rodriguez,Baytown Lee,73.94,104.33,74.84,142.88,322.05,Single-ply,SBD,M,
Boys,74.84,9,Levay Duncan,Baytown Lee,72.57,104.33,68.04,145.15,317.51,Single-ply,SBD,M,
Boys,74.84,10,Edgar Flores,Baytown Lee,69.85,90.72,70.31,129.27,290.3,Single-ply,SBD,M,
Boys,74.84,11,Neddy Padron,Baytown Lee,72.57,79.38,74.84,108.86,263.08,Single-ply,SBD,M,
Boys,74.84,12,Dustin Baker,Baytown Lee,72.57,,56.7,124.74,181.44,Single-ply,BD,M,
Boys,74.84,13,Isaias Cerda,Baytown Lee,70.31,47.63,34.02,83.91,165.56,Single-ply,SBD,M,
Boys,74.84,14,Adrian Mondragon,Baytown Lee,70.31,83.91,52.16,,136.08,Single-ply,SB,M,
Boys,74.84,DQ,Xehvion Trahan,Baytown Lee,69.85,,,,,Single-ply,SBD,M,
Boys,74.84,DQ,Andrew Passament,Baytown Lee,68.95,,,,,Single-ply,SBD,M,
Boys,74.84,DQ,Sergio Hinijosa,Baytown Goose Creek Memorial,73.94,,,,,Single-ply,SBD,M,
Boys,82.1,1,Gavin Hebert,Baytown Sterling,79.38,174.63,142.88,170.1,487.61,Single-ply,SBD,M,
Boys,82.1,2,Guillermo Vazquez,Baytown Lee,78.02,142.88,68.04,156.49,367.41,Single-ply,SBD,M,
Boys,82.1,3,Jay Larios,Baytown Lee,81.65,120.2,68.04,145.15,333.39,Single-ply,SBD,M,
Boys,82.1,DQ,Matteo De Los Reyes,Baytown Lee,75.3,,,,,Single-ply,SBD,M,
Boys,82.1,DQ,Fernado Ramos,Baytown Goose Creek Memorial,79.38,,,,,Single-ply,SBD,M,
Boys,89.81,1,Tod Ulrich,Baytown Goose Creek Memorial,86.64,179.17,113.4,204.12,496.68,Single-ply,SBD,M,
Boys,89.81,2,Julian Chapa,Baytown Goose Creek Memorial,82.55,117.93,70.31,117.93,306.17,Single-ply,SBD,M,
Boys,89.81,3,Benito Zuniga,Baytown Goose Creek Memorial,88.45,108.86,49.9,113.4,272.16,Single-ply,SBD,M,
Boys,89.81,4,Mathew Garza,Baytown Lee,87.54,86.18,,127.01,213.19,Single-ply,SD,M,
Boys,89.81,DQ,Harold Gibson,Baytown Lee,85.28,,,,,Single-ply,SBD,M,
Boys,89.81,DQ,Juan Huerta,Baytown Lee,86.18,,,,,Single-ply,SBD,M,
Boys,89.81,DQ,Bradly Huerta,Baytown Lee,82.55,,,,,Single-ply,SBD,M,
Boys,99.79,1,Jonathan Ayala,Baytown Goose Creek Memorial,92.53,224.53,113.4,235.87,573.79,Single-ply,SBD,M,
Boys,99.79,2,Ivan Ibarra,Baytown Lee,97.52,161.03,113.4,204.12,478.54,Single-ply,SBD,M,
Boys,99.79,3,Charles Micheletti,Baytown Goose Creek Memorial,98.88,183.7,106.59,165.56,455.86,Single-ply,SBD,M,
Boys,99.79,4,Angel Ceja #3,Baytown Lee,97.98,145.15,111.13,172.37,428.64,Single-ply,SBD,M,
Boys,99.79,5,Angel Jara,Baytown Goose Creek Memorial,99.34,185.97,74.84,165.56,426.38,Single-ply,SBD,M,
Boys,99.79,6,Victor Borojos,Baytown Lee,98.88,129.27,56.7,183.7,369.68,Single-ply,SBD,M,
Boys,99.79,7,Ricarri Blow,Baytown Lee,91.63,142.88,72.57,133.81,349.27,Single-ply,SBD,M,
Boys,99.79,8,Anthony Clark #7,Baytown Lee,97.98,117.93,68.04,149.69,335.66,Single-ply,SBD,M,
Boys,99.79,9,Raymundo Navarro,Baytown Lee,92.99,117.93,68.04,142.88,328.85,Single-ply,SBD,M,
Boys,99.79,DQ,Larry Harrison,Baytown Lee,97.52,,,,,Single-ply,SBD,M,
Boys,99.79,DQ,Dilan Cerino,Baytown Lee,90.26,,,,,Single-ply,SBD,M,
Boys,109.77,1,Isac Rendon,Baytown Lee,103.42,183.7,106.59,170.1,460.4,Single-ply,SBD,M,
Boys,109.77,2,Jonathan Carter,Baytown Lee,100.7,136.08,90.72,190.51,417.3,Single-ply,SBD,M,
Boys,109.77,3,Julian Salinas,Baytown Lee,108.41,77.11,65.77,127.01,269.89,Single-ply,SBD,M,
Boys,109.77,4,Tyce Smoke,Baytown Sterling,108.86,95.25,68.04,102.06,265.35,Single-ply,SBD,M,
Boys,124.74,1,Domonic Medina,Baytown Lee,113.85,210.92,117.93,183.7,512.56,Single-ply,SBD,M,
Boys,124.74,2,Mason Johnson,Baytown Sterling,124.74,188.24,113.4,197.31,498.95,Single-ply,SBD,M,
Boys,124.74,3,Issac Herron,Baytown Lee,115.21,149.69,86.18,167.83,403.7,Single-ply,SBD,M,
Boys,124.74,4,Benjamin Quevedo-Mata,Baytown Lee,113.4,151.95,90.72,151.95,394.63,Single-ply,SBD,M,
Boys,124.74,5,Christopher Sandoval,Baytown Lee,111.58,120.2,65.77,142.88,328.85,Single-ply,SBD,M,
Boys,124.74,6,Bennett Burell,Baytown Lee,113.4,65.77,74.84,156.49,297.1,Single-ply,SBD,M,
Boys,139.71,1,Adrian Arrellano,Baytown Goose Creek Memorial,131.09,201.85,102.06,208.65,512.56,Single-ply,SBD,M,
Boys,139.71,2,Nikolas Rodriguez,Baytown Lee,129.73,197.31,88.45,208.65,494.42,Single-ply,SBD,M,
Boys,139.71,3,Darrell Crain,Baytown Sterling,127.01,183.7,113.4,185.97,483.08,Single-ply,SBD,M,
Boys,139.71,4,Damian Hernandez,Baytown Goose Creek Memorial,130.18,142.88,74.84,145.15,362.87,Single-ply,SBD,M,
Boys,139.71,5,Dylan Jeffers,Baytown Goose Creek Memorial,130.63,136.08,65.77,142.88,344.73,Single-ply,SBD,M,
Boys,139.71+,1,Omar Nieto,Baytown Lee,149.69,265.35,124.74,222.26,612.35,Single-ply,SBD,M,
Boys,139.71+,2,Jaylen Everett,Baytown Sterling,147.42,233.6,147.42,204.12,585.13,Single-ply,SBD,M,
Boys,139.71+,3,Jeremyh Brown,Baytown Lee,143.34,142.88,102.06,158.76,403.7,Single-ply,SBD,M,
Boys,139.71+,4,Gavin Pacheco,Baytown Lee,163.29,142.88,83.91,142.88,369.68,Single-ply,SBD,M,
Boys,139.71+,DQ,Jose Chavez,Baytown Lee,145.15,,,,,Single-ply,SBD,M,
