Division,WeightClassKg,Place,Name,Team,BodyweightKg,Best3SquatKg,Best3BenchKg,Best3DeadliftKg,TotalKg,Equipment,Event,Sex,BirthDate
Boys,51.71,1,Kevin Chavez,Royse City,51.71,149.69,77.11,154.22,381.02,Single-ply,SBD,M,
Boys,51.71,2,Ryne Moncier,Princeton,51.71,122.47,83.91,131.54,337.93,Single-ply,SBD,M,
Boys,51.71,3,Tyler Flower,Venus,50.98,120.2,86.18,124.74,331.12,Single-ply,SBD,M,
Boys,51.71,4,Julian Le,Carrollton Creekview,50.62,120.2,77.11,129.27,326.59,Single-ply,SBD,M,
Boys,51.71,5,Jaxson Tran,Bishop Lynch,46.27,97.52,61.23,113.4,272.16,Single-ply,SBD,M,
Boys,51.71,6,Eric Melendez,Carrollton Turner,50.44,95.25,45.36,97.52,238.14,Single-ply,SBD,M,
Boys,51.71,7,Trey Whitehead,Cedar Hill,48.63,83.91,52.16,92.99,229.06,Single-ply,SBD,M,
Boys,51.71,8,Jeremiah Jackson,Royse City,42.46,68.04,38.56,70.31,176.9,Single-ply,SBD,M,
Boys,55.79,1,Ryan Fleming,Dallas Jesuit,54.34,165.56,81.65,167.83,415.04,Single-ply,SBD,M,
Boys,55.79,2,Josiah Sparks,Cedar Hill,55.25,154.22,86.18,147.42,387.82,Single-ply,SBD,M,
Boys,55.79,3,Rikker Suglia,Royse City,55.34,140.61,74.84,138.35,353.8,Single-ply,SBD,M,
Boys,55.79,4,Andy Mejia,Carrollton Turner,54.79,136.08,79.38,136.08,351.53,Single-ply,SBD,M,
Boys,59.87,1,Austin Reynolds,Royse City,56.88,165.56,99.79,181.44,446.79,Single-ply,SBD,M,
Boys,59.87,2,Jacob Luna,Bishop Lynch,59.51,136.08,72.57,154.22,362.87,Single-ply,SBD,M,
Boys,59.87,3,Romario Melendez,Carrollton Turner,59.33,106.59,77.11,124.74,308.44,Single-ply,SBD,M,
Boys,59.87,4,Brysen Colman,Royse City,59.87,72.57,49.9,72.57,195.04,Single-ply,SBD,M,
Boys,67.13,1,Ajay Bhaven,Dallas Jesuit,65.68,201.85,97.52,201.85,501.22,Single-ply,SBD,M,
Boys,67.13,2,Massimo Liberator,Carrollton Creekview,64.14,181.44,113.4,183.7,478.54,Single-ply,SBD,M,
Boys,67.13,3,Elijah Wallace,Duncanville,66.04,142.88,97.52,183.7,424.11,Single-ply,SBD,M,
Boys,67.13,4,Ashton Nguyen,Carrollton Creekview,62.14,165.56,79.38,163.29,408.23,Single-ply,SBD,M,
Boys,67.13,5,Cande Narvaez,Dallas Jesuit,66.22,165.56,83.91,156.49,405.97,Single-ply,SBD,M,
Boys,67.13,6,Aaron Hernandez,Venus,66.22,151.95,90.72,158.76,401.43,Single-ply,SBD,M,
Boys,67.13,7,Diesel Tijerina,Royse City,66.41,142.88,90.72,161.03,394.63,Single-ply,SBD,M,
Boys,67.13,8,Aidan Gray,Grapevine,63.96,147.42,92.99,149.69,390.09,Single-ply,SBD,M,
Boys,67.13,9,Mason Tatum,Grapevine,66.13,113.4,83.91,142.88,340.19,Single-ply,SBD,M,
Boys,67.13,10,Beckett Polma,Dallas Jesuit,66.41,104.33,79.38,129.27,312.98,Single-ply,SBD,M,
Boys,67.13,11,Sam Gappa,Bishop Lynch,61.78,102.06,61.23,113.4,276.69,Single-ply,SBD,M,
Boys,67.13,DQ,Jabez Hodges,Cedar Hill,66.81,151.95,,165.56,,Single-ply,SBD,M,
Boys,74.84,1,Hayden Bohme,Royse City,74.66,197.31,111.13,206.38,514.83,Single-ply,SBD,M,
Boys,74.84,2,Keolan Harongsemal,Carrollton Creekview,74.84,188.24,120.2,199.58,508.02,Single-ply,SBD,M,
Boys,74.84,3,Alejandro Mejia,Venus,72.12,201.85,124.74,167.83,494.42,Single-ply,SBD,M,
Boys,74.84,4,Christian Straffon,Dallas Jesuit,70.13,192.78,102.06,188.24,483.08,Single-ply,SBD,M,
Boys,74.84,5,Will Nguyen,Princeton,69.94,174.63,117.93,172.37,464.93,Single-ply,SBD,M,
Boys,74.84,6,Alfonso Rangel,Venus,68.04,185.97,92.99,174.63,453.59,Single-ply,SBD,M,
Boys,74.84,7,Carlos Orozco,Carrollton Turner,71.94,170.1,86.18,163.29,419.57,Single-ply,SBD,M,
Boys,74.84,8,Adrian Gutierrez-Flores,Waco University,69.76,129.27,61.23,151.95,342.46,Single-ply,SBD,M,
Boys,74.84,9,Jayden Jones,Bishop Lynch,72.67,127.01,77.11,136.08,340.19,Single-ply,SBD,M,
Boys,74.84,10,Preston Nguyen,Mansfield Timberview,68.13,102.06,65.77,136.08,303.91,Single-ply,SBD,M,
Boys,74.84,11,Giovani Carvares,Bishop Lynch,70.22,111.13,56.7,120.2,288.03,Single-ply,SBD,M,
Boys,82.1,1,Sam Mitchum,Royse City,78.02,210.92,138.35,249.48,598.74,Single-ply,SBD,M,
Boys,82.1,2,Jaylen Jenkins,Cedar Hill,79.88,217.72,127.01,226.8,571.53,Single-ply,SBD,M,
Boys,82.1,3,Kingsley Opara,Mansfield Timberview,80.74,219.99,113.4,226.8,560.19,Single-ply,SBD,M,
Boys,82.1,4,Jayden Gross,Venus,81.28,213.19,129.27,199.58,542.04,Single-ply,SBD,M,
Boys,82.1,5,Colin Scherp,Dallas Jesuit,81.37,197.31,106.59,213.19,517.1,Single-ply,SBD,M,
Boys,82.1,6,Metric Manning,Duncanville,81.74,197.31,106.59,213.19,517.1,Single-ply,SBD,M,
Boys,82.1,7,Kaeden Landry,Duncanville,76.66,149.69,97.52,247.21,494.42,Single-ply,SBD,M,
Boys,82.1,8,Jeremiah Williams,Mansfield Timberview,79.47,174.63,113.4,204.12,492.15,Single-ply,SBD,M,
Boys,82.1,9,Givens Igwe,Lancaster,79.11,147.42,92.99,240.4,480.81,Single-ply,SBD,M,
Boys,82.1,10,Gabriel Duncan,Royse City,81.28,183.7,111.13,179.17,474,Single-ply,SBD,M,
Boys,82.1,11,Tristan Bell,Cedar Hill,79.42,181.44,102.06,181.44,464.93,Single-ply,SBD,M,
Boys,82.1,12,Lam Tran,Carrollton Turner,81.01,172.37,113.4,176.9,462.66,Single-ply,SBD,M,
Boys,82.1,13,Parker Polk,Grapevine,75.75,163.29,111.13,179.17,453.59,Single-ply,SBD,M,
Boys,82.1,14,Anthony Marquez,Carrollton Creekview,79.65,170.1,102.06,181.44,453.59,Single-ply,SBD,M,
Boys,82.1,15,Saul Sanchez,Bishop Lynch,81.28,158.76,102.06,158.76,419.57,Single-ply,SBD,M,
Boys,82.1,16,Chance Redic-Woods,Mansfield Timberview,75.57,131.54,83.91,167.83,383.29,Single-ply,SBD,M,
Boys,82.1,17,Joe Sambar,Bishop Lynch,82.1,142.88,95.25,113.4,351.53,Single-ply,SBD,M,
Boys,82.1,18,Bryan Flores-Gonzales,Waco University,76.66,117.93,72.57,136.08,326.59,Single-ply,SBD,M,
Boys,82.1,DQ,Tony Lusha,Carrollton Creekview,77.2,127.01,,,,Single-ply,SBD,M,
Boys,82.1,DQ,Kylon Ashton,Cedar Hill,77.11,208.65,,,,Single-ply,SBD,M,
Boys,89.81,1,Nathan Le,Mansfield Timberview,87,226.8,124.74,222.26,573.79,Single-ply,SBD,M,
Boys,89.81,2,Isaiah Morales,Venus,87.91,222.26,117.93,219.99,560.19,Single-ply,SBD,M,
Boys,89.81,3,Mateo Dominguez,Venus,88.9,226.8,120.2,213.19,560.19,Single-ply,SBD,M,
Boys,89.81,4,Solomon Charles,Duncanville,87.09,215.46,117.93,208.65,542.04,Single-ply,SBD,M,
Boys,89.81,5,Joel Ardern,Mansfield Timberview,88.63,199.58,117.93,208.65,526.17,Single-ply,SBD,M,
Boys,89.81,6,Enrique Garcia,Venus,87.82,195.04,117.93,206.38,519.36,Single-ply,SBD,M,
Boys,89.81,7,Ricardo Rendon,Mansfield Timberview,89.63,197.31,129.27,192.78,519.36,Single-ply,SBD,M,
Boys,89.81,8,Braylon Bradley,Princeton,83.46,195.04,104.33,192.78,492.15,Single-ply,SBD,M,
Boys,89.81,9,Caleb Foster,Princeton,84.55,165.56,124.74,170.1,460.4,Single-ply,SBD,M,
Boys,89.81,10,Sebastian Cervantes,Waco University,88.9,174.63,83.91,165.56,424.11,Single-ply,SBD,M,
Boys,89.81,11,John McClinton,Duncanville,87.45,165.56,113.4,124.74,403.7,Single-ply,SBD,M,
Boys,89.81,12,Thomas Vidana,Waco University,87.82,158.76,79.38,145.15,383.29,Single-ply,SBD,M,
Boys,89.81,13,Hayden Chavez,Bishop Lynch,89.36,142.88,86.18,124.74,353.8,Single-ply,SBD,M,
Boys,99.79,1,Caleb Robb,Royse City,91.53,254.01,167.83,229.06,650.91,Single-ply,SBD,M,
Boys,99.79,2,Jovani Tamayo,Venus,96.25,242.67,170.1,229.06,641.83,Single-ply,SBD,M,
Boys,99.79,3,Zach Essih,Mansfield Timberview,96.62,244.94,136.08,249.48,630.49,Single-ply,SBD,M,
Boys,99.79,4,Kylan Salter,Cedar Hill,92.8,226.8,120.2,238.14,585.13,Single-ply,SBD,M,
Boys,99.79,5,Jacen Gray,Royse City,91.17,215.46,120.2,226.8,562.45,Single-ply,SBD,M,
Boys,99.79,6,Zhailyn Scott,Cedar Hill,93.62,208.65,149.69,197.31,555.65,Single-ply,SBD,M,
Boys,99.79,7,Derick Whitaker,Cedar Hill,90.76,204.12,122.47,226.8,553.38,Single-ply,SBD,M,
Boys,99.79,8,Nate Williams,Royse City,99.7,204.12,142.88,204.12,551.11,Single-ply,SBD,M,
Boys,99.79,9,Josue Benevides,Carrollton Creekview,99.7,197.31,136.08,195.04,528.44,Single-ply,SBD,M,
Boys,99.79,10,Brian Ipina,Carrollton Turner,97.34,204.12,115.67,197.31,517.1,Single-ply,SBD,M,
Boys,99.79,11,Austel Mayfield,Princeton,96.71,199.58,113.4,183.7,496.68,Single-ply,SBD,M,
Boys,99.79,12,Elijah Wilson,Duncanville,92.08,199.58,102.06,192.78,494.42,Single-ply,SBD,M,
Boys,99.79,13,Andrew Sherril,Venus,92.17,190.51,102.06,195.04,487.61,Single-ply,SBD,M,
Boys,99.79,14,Jack Nelson,Carrollton Creekview,92.44,167.83,104.33,170.1,442.25,Single-ply,SBD,M,
Boys,99.79,15,Hamliton Walker,Bishop Lynch,97.79,106.59,90.72,113.4,310.71,Single-ply,SBD,M,
Boys,99.79,DQ,Kyan Crim,Mansfield Timberview,99.16,151.95,104.33,,,Single-ply,SBD,M,
Boys,99.79,DQ,Njawa Samuel,Lancaster,90.54,165.56,127.01,,,Single-ply,SBD,M,
Boys,99.79,DQ,Jacouris Adams,Lancaster,90.26,170.1,113.4,,,Single-ply,SBD,M,
Boys,99.79,DQ,Graham Akoh,Princeton,91.17,224.53,124.74,,,Single-ply,SBD,M,
Boys,99.79,DQ,Markel Porter,Duncanville,95.8,210.92,120.2,,,Single-ply,SBD,M,
Boys,109.77,1,Joel Portillo,Carrollton Turner,108.05,260.82,131.54,229.06,621.42,Single-ply,SBD,M,
Boys,109.77,2,Jaime Gonzalez,Venus,104.14,229.06,147.42,197.31,573.79,Single-ply,SBD,M,
Boys,109.77,3,Demetrius Williams,Cedar Hill,103.19,238.14,111.13,201.85,551.11,Single-ply,SBD,M,
Boys,109.77,4,Ty'odrick Wagner,Waco University,108.5,208.65,133.81,206.38,548.85,Single-ply,SBD,M,
Boys,109.77,5,Gage Porche,Carrollton Creekview,103.87,190.51,108.86,199.58,498.95,Single-ply,SBD,M,
Boys,109.77,6,Jabari Sims,Cedar Hill,106.68,181.44,102.06,192.78,476.27,Single-ply,SBD,M,
Boys,109.77,7,Josh Marquez,Carrollton Turner,101.79,174.63,113.4,181.44,469.47,Single-ply,SBD,M,
Boys,124.74,1,Keiran Phounsavath,Royse City,116.39,283.5,174.63,238.14,696.26,Single-ply,SBD,M,
Boys,124.74,2,Isaiah Knox,Cedar Hill,121.11,272.16,156.49,222.26,650.91,Single-ply,SBD,M,
Boys,124.74,3,Jaydon Rolen,Cedar Hill,116.48,226.8,138.35,235.87,601.01,Single-ply,SBD,M,
Boys,124.74,4,Noah Sanchez,Carrollton Creekview,117.3,247.21,127.01,204.12,578.33,Single-ply,SBD,M,
Boys,124.74,5,Noah Ponce,Duncanville,120.93,199.58,136.08,213.19,548.85,Single-ply,SBD,M,
Boys,124.74,6,Robert Young,Cedar Hill,120.11,208.65,129.27,201.85,539.77,Single-ply,SBD,M,
Boys,124.74,7,Jayden Coker,Cedar Hill,122.56,235.87,108.86,185.97,530.7,Single-ply,SBD,M,
Boys,124.74,8,Elyjah Gilliard,Cedar Hill,115.39,210.92,124.74,192.78,528.44,Single-ply,SBD,M,
Boys,124.74,9,Travis Chinamhora,Carrollton Creekview,124.74,204.12,136.08,174.63,514.83,Single-ply,SBD,M,
Boys,124.74,10,Mekhi Harris,Cedar Hill,111.72,204.12,104.33,204.12,512.56,Single-ply,SBD,M,
Boys,124.74,11,Drake Bequeaith,Grapevine,115.58,165.56,120.2,190.51,476.27,Single-ply,SBD,M,
Boys,124.74,12,Jaime Resendiz,Venus,111.31,183.7,102.06,170.1,455.86,Single-ply,SBD,M,
Boys,124.74,13,Eric Grooms,Waco University,109.95,147.42,88.45,156.49,392.36,Single-ply,SBD,M,
Boys,124.74,14,Michael Ipina,Carrollton Turner,112.31,138.35,97.52,133.81,369.68,Single-ply,SBD,M,
Boys,124.74,15,D'Eric Barnes,Lancaster,123.92,170.1,120.2,,290.3,Single-ply,SB,M,
Boys,124.74,DQ,Jayden Fraide,Princeton,121.56,,,,,Single-ply,SBD,M,
Boys,124.74,DQ,Carlos Martinez #31,Carrollton Turner,116.94,,,,,Single-ply,SBD,M,
Boys,124.74,DQ,Josiah Jefferson,Cedar Hill,120.07,249.48,,,,Single-ply,SBD,M,
Boys,139.71,1,Paul Monrial,Waco University,129.73,238.14,163.29,231.33,632.76,Single-ply,SBD,M,
Boys,139.71,2,Collin Howe,Royse City,128.46,238.14,142.88,210.92,591.94,Single-ply,SBD,M,
Boys,139.71,3,Zahmaurixa Jones-Lewis,Duncanville,130,238.14,138.35,213.19,589.67,Single-ply,SBD,M,
Boys,139.71,4,Jaebreohn Peters,Duncanville,128.19,208.65,142.88,210.92,562.45,Single-ply,SBD,M,
Boys,139.71,5,Enrique Rangel,Waco University,127.37,226.8,136.08,183.7,546.58,Single-ply,SBD,M,
Boys,139.71,6,Marco Herrera,Mansfield Timberview,136.98,204.12,117.93,172.37,494.42,Single-ply,SBD,M,
Boys,139.71+,1,David Johnson,Princeton,154.22,272.16,183.7,254.01,709.87,Single-ply,SBD,M,
Boys,139.71+,2,Llanes Alek,Carrollton Creekview,179.8,240.4,124.74,222.26,587.4,Single-ply,SBD,M,
Boys,139.71+,3,Tristan Voa,Mansfield Timberview,151.77,229.06,133.81,197.31,560.19,Single-ply,SBD,M,
Boys,139.71+,4,Devin Coleman,Cedar Hill,141.7,226.8,129.27,192.78,548.85,Single-ply,SBD,M,
Boys,139.71+,5,Ty'Eric Bernal,Waco University,147.96,215.46,124.74,183.7,523.9,Single-ply,SBD,M,
Boys,139.71+,6,Dilan Battle,Mansfield Timberview,145.88,181.44,108.86,204.12,494.42,Single-ply,SBD,M,
Boys,,NS,Alex Holguin,Grapevine,,,,,,Single-ply,SBD,M,
Boys,,NS,Jayden Shaw,Lancaster,,,,,,Single-ply,SBD,M,
Boys,,NS,Andrew Collins,Lancaster,,,,,,Single-ply,SBD,M,
Boys,,NS,Javardis Avila,Lancaster,,,,,,Single-ply,SBD,M,
Boys,,NS,AJ Gonzales,Princeton,,,,,,Single-ply,SBD,M,
Boys,,NS,Lucian Butler,Princeton,,,,,,Single-ply,SBD,M,
Boys,,NS,Zackary Williams,Princeton,,,,,,Single-ply,SBD,M,
Boys,,NS,Parker Morgan,Princeton,,,,,,Single-ply,SBD,M,
Boys,,NS,Justin Scott,Royse City,,,,,,Single-ply,SBD,M,
Boys,,NS,Terrell Davis,Waco University,,,,,,Single-ply,SBD,M,
Boys,,NS,Marcos Gamero,Waco University,,,,,,Single-ply,SBD,M,
Boys,,NS,Juan Olivares,Waco University,,226.8,,,,Single-ply,SBD,M,
Boys,,NS,Olou Ayodele,Princeton,,,,,,Single-ply,SBD,M,
Boys,,NS,Christian Hernandez,Royse City,,,,,,Single-ply,SBD,M,
Boys,,NS,Braden Tittle,Royse City,,,,,,Single-ply,SBD,M,
Boys,,NS,Phoenix Crump,Cedar Hill,,,,,,Single-ply,SBD,M,
Boys,,NS,Amore Carr-Lane,Cedar Hill,,,,,,Single-ply,SBD,M,
Boys,,NS,Traviun Smith,Cedar Hill,,,,,,Single-ply,SBD,M,
Boys,,NS,JaQualon Armstrong,Duncanville,,,,,,Single-ply,SBD,M,
Boys,,NS,Kaleb Kinney,Duncanville,,,,,,Single-ply,SBD,M,
Boys,,NS,Steven Gipson,Duncanville,,,,,,Single-ply,SBD,M,
Boys,,NS,William Glenn,Duncanville,,,,,,Single-ply,SBD,M,
Boys,,NS,William Torres,Carrollton Turner,,,,,,Single-ply,SBD,M,
Boys,,NS,Tyreke Williams,Carrollton Turner,,,,,,Single-ply,SBD,M,
Boys,,NS,Rontavis Jackson,Cedar Hill,,,,,,Single-ply,SBD,M,
