Division,WeightClassKg,Place,Name,Team,BodyweightKg,Best3SquatKg,Best3BenchKg,Best3DeadliftKg,TotalKg,Equipment,Event,Sex
Boys,51.71,1,Cade Flebbe,Warren,48.53,111.13,68.04,142.88,322.05,Single-ply,SBD,M
Boys,51.71,2,Tristan Stanley,Warren,51.03,108.86,63.5,117.93,290.3,Single-ply,SBD,M
Boys,51.71,3,Corey Ford,Livingston,47.17,70.31,38.56,74.84,183.7,Single-ply,SBD,M
Boys,55.79,1,Cole Johnson,Colmesneil,55.34,138.35,68.04,149.69,356.07,Single-ply,SBD,M
Boys,55.79,2,Aaron Garess,Woodville,55,102.06,61.23,120.2,283.5,Single-ply,SBD,M
Boys,59.87,1,Mason Carmelo,Colmesneil,59.42,129.27,97.52,158.76,385.55,Single-ply,SBD,M
Boys,59.87,2,River Studdard,San Augustine,58.97,108.86,61.23,136.08,306.17,Single-ply,SBD,M
Boys,59.87,3,Tristan Garcia,Warren,57.61,83.91,68.04,122.47,274.42,Single-ply,SBD,M
Boys,67.13,1,Eric Stanfield,Livingston,67.13,210.92,102.06,165.56,478.54,Single-ply,SBD,M
Boys,67.13,2,Dallan Sneed,Livingston,66.68,158.76,111.13,183.7,453.59,Single-ply,SBD,M
Boys,67.13,3,Kaleb Lindsey,Colmesneil,64.41,170.1,97.52,163.29,430.91,Single-ply,SBD,M
Boys,67.13,4,Riley Shaw,Woodville,63.73,142.88,86.18,147.42,376.48,Single-ply,SBD,M
Boys,67.13,5,Tyler Dawson,Livingston,62.14,133.81,90.72,145.15,369.68,Single-ply,SBD,M
Boys,67.13,6,Josh Hensarling,Woodville,66,129.27,74.84,163.29,367.41,Single-ply,SBD,M
Boys,67.13,7,JaChristopher Holman,San Augustine,66.11,138.35,92.99,136.08,367.41,Single-ply,SBD,M
Boys,67.13,8,Matthew Wagner #2,Woodville,66.68,138.35,65.77,142.88,347,Single-ply,SBD,M
Boys,67.13,9,Ismael Orduna,Livingston,63.28,129.27,74.84,131.54,335.66,Single-ply,SBD,M
Boys,67.13,10,Trinity Morris,Warren,62.71,111.13,81.65,120.2,312.98,Single-ply,SBD,M
Boys,74.84,1,Cercharvic Berry,San Augustine,73.94,172.37,106.59,192.78,471.74,Single-ply,SBD,M
Boys,74.84,2,Cameron Flebbe,Warren,69.17,170.1,102.06,192.78,464.93,Single-ply,SBD,M
Boys,74.84,3,Dalton Davis #2,Colmesneil,73.03,156.49,104.33,170.1,430.91,Single-ply,SBD,M
Boys,74.84,4,Cer'Charvis Berry,San Augustine,73.94,142.88,106.59,147.42,396.89,Single-ply,SBD,M
Boys,82.1,5,Parker Johnson,Colmesneil,75.02,145.15,83.91,145.15,374.21,Single-ply,SBD,M
Boys,82.1,1,Cody Walsh,Colmesneil,81.42,165.56,124.74,192.78,483.08,Single-ply,SBD,M
Boys,82.1,2,Chance Free,Livingston,77.56,181.44,92.99,183.7,458.13,Single-ply,SBD,M
Boys,82.1,3,Mack Palmer,Saratoga West Hardin,80.51,129.27,115.67,185.97,430.91,Single-ply,SBD,M
Boys,82.1,4,Chandler Button,Woodville,76.66,158.76,83.91,158.76,401.43,Single-ply,SBD,M
Boys,82.1,5,Jacob Williams,Woodville,77.34,133.81,79.38,133.81,347,Single-ply,SBD,M
Boys,89.81,1,Christopher Hodges,Livingston,89.13,197.31,111.13,183.7,492.15,Single-ply,SBD,M
Boys,89.81,2,Dylan Hasson,Woodville,84.82,158.76,92.99,172.37,424.11,Single-ply,SBD,M
Boys,89.81,3,Hunter Bland,Livingston,84.48,142.88,97.52,174.63,415.04,Single-ply,SBD,M
Boys,89.81,4,Joshua Kennedy,Livingston,83.91,151.95,92.99,147.42,392.36,Single-ply,SBD,M
Boys,99.79,1,Caleb Crittenden,Warren,98.2,158.76,142.88,161.03,462.66,Single-ply,SBD,M
Boys,99.79,2,DeSavion Crane,San Augustine,90.72,183.7,92.99,140.61,417.3,Single-ply,SBD,M
Boys,99.79,3,Allen Williams,Woodville,93.89,158.76,90.72,158.76,408.23,Single-ply,SBD,M
Boys,99.79,4,Dustin McKee,Colmesneil,95.93,108.86,90.72,136.08,335.66,Single-ply,SBD,M
Boys,99.79,DQ,Tyler Cutrer,Colmesneil,91.4,197.31,124.74,,,Single-ply,SBD,M
Boys,99.79,DQ,Kyle Haynes #2,Livingston,96.62,204.12,129.27,,,Single-ply,SBD,M
Boys,124.74,1,Jordan Johnson #4,Livingston,121.56,190.51,151.95,167.83,510.29,Single-ply,SBD,M
Boys,124.74,2,Chance Hickman,Saratoga West Hardin,119.75,181.44,90.72,174.63,446.79,Single-ply,SBD,M
Boys,124.74,3,Collin Chesson,Saratoga West Hardin,112.94,161.03,102.06,181.44,444.52,Single-ply,SBD,M
Boys,124.74,4,Alex Buber,San Augustine,114.53,165.56,108.86,147.42,421.84,Single-ply,SBD,M
Boys,124.74,5,Tristan Rigsby,Colmesneil,121.11,158.76,102.06,158.76,419.57,Single-ply,SBD,M
Boys,124.74+,1,Daniel Ogrodowicz,Woodville,132,226.8,120.2,208.65,555.65,Single-ply,SBD,M
Boys,124.74+,2,Jacob Cates,Livingston,131.09,226.8,142.88,183.7,553.38,Single-ply,SBD,M
Boys,124.74+,3,Trey Dear,Woodville,135.85,204.12,113.4,204.12,521.63,Single-ply,SBD,M
Boys,124.74+,4,Ej Barnes,San Augustine,127.57,179.17,136.08,170.1,485.34,Single-ply,SBD,M
Boys,124.74+,5,Seth Cashat,Colmesneil,130.18,136.08,97.52,140.61,374.21,Single-ply,SBD,M
Boys,,NS,Dakota Nelson,Livingston,,,,,,Single-ply,SBD,M
Boys,,NS,Shane Nelson,Livingston,,,,,,Single-ply,SBD,M
Boys,,NS,Deveon Jefferson,Livingston,,,,,,Single-ply,SBD,M
Boys,,NS,Randall Self,Saratoga West Hardin,,,,,,Single-ply,SBD,M
Boys,,NS,Darius Murray,San Augustine,,,,,,Single-ply,SBD,M
Boys,,NS,Yvenskie Rushing,San Augustine,,,,,,Single-ply,SBD,M
Boys,,NS,Charles Suell,San Augustine,,,,,,Single-ply,SBD,M
