Division,WeightClassKg,Place,Name,Team,BodyweightKg,Best3SquatKg,Best3BenchKg,Best3DeadliftKg,TotalKg,Equipment,Event,Sex,BirthDate
Boys,51.71,1,Tevin Mead,Miles,51.35,167.83,97.52,158.76,424.11,Single-ply,SBD,M,
Boys,51.71,2,Corey Michalek,Axtell,51.71,163.29,90.72,154.22,408.23,Single-ply,SBD,M,
Boys,51.71,3,Ryan Fischer,Christoval,50.26,111.13,72.57,124.74,308.44,Single-ply,SBD,M,
Boys,51.71,4,Adam Perez,De Leon,50.8,97.52,56.7,124.74,278.96,Single-ply,SBD,M,
Boys,51.71,5,Aiden Olander,Bosqueville,50.98,92.99,65.77,113.4,272.16,Single-ply,SBD,M,
Boys,51.71,6,Acey Mask,San Saba,49.44,99.79,56.7,97.52,254.01,Single-ply,SBD,M,
Boys,51.71,7,Axel Cervantes,Roscoe Collegiate,49.08,92.99,47.63,106.59,247.21,Single-ply,SBD,M,
Boys,51.71,8,Raiden Spruill,Hico,51.71,79.38,47.63,108.86,235.87,Single-ply,SBD,M,
Boys,51.71,9,Zayden Heaton,Moody,48.17,70.31,61.23,88.45,219.99,Single-ply,SBD,M,
Boys,51.71,10,Kazdyn Womack,Colorado City Colorado,48.63,81.65,47.63,88.45,217.72,Single-ply,SBD,M,
Boys,55.79,1,Leo Martinez,Ranger,53.89,127.01,79.38,136.08,342.46,Single-ply,SBD,M,
Boys,55.79,2,Justin Hernandez,San Saba,55.16,117.93,68.04,136.08,322.05,Single-ply,SBD,M,
Boys,55.79,3,Xander Moffett,Roscoe Collegiate,55.25,117.93,79.38,124.74,322.05,Single-ply,SBD,M,
Boys,55.79,4,Ricky Chavarria,Moody,54.16,122.47,68.04,124.74,315.25,Single-ply,SBD,M,
Boys,55.79,5,Troy Arlitt,Axtell,54.79,120.2,68.04,124.74,312.98,Single-ply,SBD,M,
Boys,55.79,6,Gabe Garza,Colorado City Colorado,55.52,97.52,81.65,120.2,299.37,Single-ply,SBD,M,
Boys,55.79,7,Aaron Olander,Bosqueville,51.98,111.13,72.57,108.86,292.57,Single-ply,SBD,M,
Boys,55.79,8,Graham Gleaton,Roscoe Collegiate,55.79,115.67,63.5,111.13,290.3,Single-ply,SBD,M,
Boys,55.79,9,Lander Callison,De Leon,54.43,120.2,61.23,104.33,285.76,Single-ply,SBD,M,
Boys,59.87,1,Mario Pena,De Leon,57.06,158.76,102.06,158.76,419.57,Single-ply,SBD,M,
Boys,59.87,2,Nathan Skipworth,Bosqueville,58.24,154.22,92.99,149.69,396.89,Single-ply,SBD,M,
Boys,59.87,3,Winton Lackey,San Saba,59.42,167.83,92.99,136.08,396.89,Single-ply,SBD,M,
Boys,59.87,4,Garrett Kwast,Axtell,59.87,158.76,77.11,145.15,381.02,Single-ply,SBD,M,
Boys,59.87,5,Colten Morgan,Roscoe Highland,57.15,140.61,90.72,142.88,374.21,Single-ply,SBD,M,
Boys,59.87,6,Jayden Crouch,Hico,59.51,140.61,83.91,145.15,369.68,Single-ply,SBD,M,
Boys,59.87,7,Keller Vinson,Roscoe Collegiate,59.78,158.76,74.84,136.08,369.68,Single-ply,SBD,M,
Boys,59.87,8,Alvaro Sanchez,De Leon,57.88,138.35,81.65,145.15,365.14,Single-ply,SBD,M,
Boys,59.87,9,Gahel Griner,Christoval,58.33,131.54,81.65,151.95,365.14,Single-ply,SBD,M,
Boys,59.87,10,Ryder King,Bosqueville,59.06,127.01,81.65,140.61,349.27,Single-ply,SBD,M,
Boys,59.87,11,Austin Medina,Miles,57.61,133.81,77.11,136.08,347,Single-ply,SBD,M,
Boys,59.87,12,Jaiden Frith,Roscoe Collegiate,58.97,120.2,79.38,133.81,333.39,Single-ply,SBD,M,
Boys,59.87,13,Thomas Martinez,Colorado City Colorado,59.69,120.2,81.65,117.93,319.78,Single-ply,SBD,M,
Boys,67.13,1,Dayden Hunter,Coleman,65.95,190.51,149.69,176.9,517.1,Single-ply,SBD,M,
Boys,67.13,2,Jordan Davis,Axtell,65.5,192.78,104.33,176.9,474,Single-ply,SBD,M,
Boys,67.13,3,Ben Bruce,Hamilton,67.13,161.03,102.06,195.04,458.13,Single-ply,SBD,M,
Boys,67.13,4,Dylan McPherson,Christoval,64.86,181.44,106.59,167.83,455.86,Single-ply,SBD,M,
Boys,67.13,5,Everett Eidson,San Saba,67.13,183.7,108.86,163.29,455.86,Single-ply,SBD,M,
Boys,67.13,6,Ezik Hernandez,Colorado City Colorado,64.05,161.03,102.06,181.44,444.52,Single-ply,SBD,M,
Boys,67.13,7,Logan Stein,Tolar,64.23,163.29,111.13,161.03,435.45,Single-ply,SBD,M,
Boys,67.13,8,Adan Huron,San Saba,63.96,161.03,90.72,181.44,433.18,Single-ply,SBD,M,
Boys,67.13,9,Price Mullin,Hico,66.77,167.83,90.72,172.37,430.91,Single-ply,SBD,M,
Boys,67.13,10,Chris Ortiz,Colorado City Colorado,66.59,154.22,99.79,142.88,396.89,Single-ply,SBD,M,
Boys,67.13,11,Dakota Higgins,Rising Star,66.68,145.15,86.18,163.29,394.63,Single-ply,SBD,M,
Boys,67.13,12,Nate Riddell,Itasca,66.22,136.08,90.72,158.76,385.55,Single-ply,SBD,M,
Boys,67.13,DQ,Levi Muncy,Roscoe Highland,64.14,145.15,81.65,,,Single-ply,SBD,M,
Boys,74.84,1,Michael Fulton,Roscoe Collegiate,73.21,222.26,133.81,208.65,564.72,Single-ply,SBD,M,
Boys,74.84,2,Colby Tolbert,Bruceville-Eddy,71.94,226.8,120.2,161.03,508.02,Single-ply,SBD,M,
Boys,74.84,3,Dustan Bowers,Meridian,70.22,185.97,102.06,195.04,483.08,Single-ply,SBD,M,
Boys,74.84,4,Alex Thiele,Hamilton,70.76,179.17,104.33,188.24,471.74,Single-ply,SBD,M,
Boys,74.84,5,Aaron Anzua,Goldthwaite,71.49,158.76,117.93,188.24,464.93,Single-ply,SBD,M,
Boys,74.84,6,Alex Andrade,Itasca,74.84,165.56,88.45,183.7,437.72,Single-ply,SBD,M,
Boys,74.84,7,Lane Spencer,De Leon,71.4,158.76,99.79,167.83,426.38,Single-ply,SBD,M,
Boys,74.84,8,Luke Finnell,Bosqueville,71.49,181.44,92.99,149.69,424.11,Single-ply,SBD,M,
Boys,74.84,9,Ryan Hernandez,Colorado City Colorado,72.94,151.95,106.59,149.69,408.23,Single-ply,SBD,M,
Boys,74.84,DQ,Joseph Connell,Colorado City Colorado,70.4,,,,,Single-ply,SBD,M,
Boys,74.84,DQ,Denver Hunter,Coleman,69.85,195.04,,,,Single-ply,SBD,M,
Boys,74.84,DQ,Reese Kiser,Roscoe Collegiate,73.3,172.37,106.59,,,Single-ply,SBD,M,
Boys,74.84,DQ,Jonah Bradshaw,Moody,73.57,163.29,106.59,,,Single-ply,SBD,M,
Boys,82.1,1,Zuri Herrera,San Saba,78.65,213.19,115.67,204.12,532.97,Single-ply,SBD,M,
Boys,82.1,2,Tristen Harding,Roscoe Highland,78.83,195.04,120.2,204.12,519.36,Single-ply,SBD,M,
Boys,82.1,3,Kase Pelzel,Miles,75.93,192.78,106.59,192.78,492.15,Single-ply,SBD,M,
Boys,82.1,4,Isreal Chavez,Colorado City Colorado,79.92,170.1,117.93,188.24,476.27,Single-ply,SBD,M,
Boys,82.1,5,Ricky Garcia,Moody,76.11,181.44,102.06,190.51,474,Single-ply,SBD,M,
Boys,82.1,6,Miguel Gonzales,Hamilton,80.83,181.44,92.99,181.44,455.86,Single-ply,SBD,M,
Boys,82.1,7,Jimmy Diaz,Coleman,80.1,170.1,99.79,165.56,435.45,Single-ply,SBD,M,
Boys,82.1,8,Trevor McCombie,Rio Vista,79.92,147.42,120.2,161.03,428.64,Single-ply,SBD,M,
Boys,82.1,9,Quay Lloyd,Roscoe Highland,77.2,136.08,97.52,192.78,426.38,Single-ply,SBD,M,
Boys,82.1,DQ,Jackson King,Bosqueville,79.38,199.58,120.2,,,Single-ply,SBD,M,
Boys,82.1,DQ,Keith Dailey,Moody,81.37,215.46,86.18,229.06,,Single-ply,SBD,M,
Boys,89.81,1,Abram Ross,Mart,89.09,233.6,115.67,231.33,580.6,Single-ply,SBD,M,
Boys,89.81,2,Kade Miller,Miles,86,231.33,124.74,213.19,569.26,Single-ply,SBD,M,
Boys,89.81,3,John McClure,Tolar,83.82,208.65,149.69,208.65,566.99,Single-ply,SBD,M,
Boys,89.81,4,Jasen Stephens,Tolar,87.91,206.38,136.08,195.04,537.51,Single-ply,SBD,M,
Boys,89.81,5,Nicholas Harrell,Colorado City Colorado,84.28,204.12,113.4,197.31,514.83,Single-ply,SBD,M,
Boys,89.81,6,Wyatt Saunders,Moody,88.9,204.12,120.2,190.51,514.83,Single-ply,SBD,M,
Boys,89.81,7,Mitchel Hopper,Goldthwaite,86.36,172.37,122.47,210.92,505.76,Single-ply,SBD,M,
Boys,89.81,8,Xavier Gutierrez,Bosqueville,82.55,190.51,108.86,190.51,489.88,Single-ply,SBD,M,
Boys,89.81,9,Sam Stewart,Tolar,88.54,183.7,111.13,190.51,485.34,Single-ply,SBD,M,
Boys,89.81,10,Jancsi Cuevas,San Saba,89.54,195.04,104.33,176.9,476.27,Single-ply,SBD,M,
Boys,89.81,11,Justin Saenz,Roscoe Collegiate,87.36,163.29,97.52,156.49,417.3,Single-ply,SBD,M,
Boys,99.79,1,Kreed Turney,Roscoe Highland,96.98,222.26,165.56,233.6,621.42,Single-ply,SBD,M,
Boys,99.79,2,Ezequiel Munoz,Coleman,94.35,231.33,140.61,192.78,564.72,Single-ply,SBD,M,
Boys,99.79,3,Nich Squyres,Bruceville-Eddy,98.25,199.58,136.08,204.12,539.77,Single-ply,SBD,M,
Boys,99.79,4,Christian Teichelman,Valley Mills,95.62,226.8,117.93,192.78,537.51,Single-ply,SBD,M,
Boys,99.79,5,Mason Berry,Tolar,95.71,201.85,113.4,201.85,517.1,Single-ply,SBD,M,
Boys,99.79,6,Juan Hernandez,Itasca,95.71,204.12,102.06,183.7,489.88,Single-ply,SBD,M,
Boys,99.79,7,Ethan Hare,Bosqueville,98.88,195.04,90.72,197.31,483.08,Single-ply,SBD,M,
Boys,99.79,8,Oscar Villarreal,Ranger,96.43,176.9,90.72,188.24,455.86,Single-ply,SBD,M,
Boys,99.79,9,Zach Kelley,Christoval,95.53,154.22,106.59,181.44,442.25,Single-ply,SBD,M,
Boys,99.79,DQ,Cutter Cody,Coleman,94.44,215.46,111.13,,,Single-ply,SBD,M,
Boys,109.77,1,Jose Najera,Hamilton,106.96,260.82,154.22,219.99,635.03,Single-ply,SBD,M,
Boys,109.77,2,Nate Bennett,Roscoe Highland,101.42,208.65,151.95,254.01,614.62,Single-ply,SBD,M,
Boys,109.77,3,Peyton Friedman,Roscoe Collegiate,107.5,249.48,149.69,215.46,614.62,Single-ply,SBD,M,
Boys,109.77,4,Trey Haynes,Valley Mills,103.69,226.8,158.76,217.72,603.28,Single-ply,SBD,M,
Boys,109.77,5,Oscar Camacho,Coleman,101.33,229.06,138.35,226.8,594.21,Single-ply,SBD,M,
Boys,109.77,6,Dakota Webb,Tolar,104.96,231.33,127.01,213.19,571.53,Single-ply,SBD,M,
Boys,109.77,7,Kaleb Dye,Christoval,108.32,222.26,140.61,192.78,555.65,Single-ply,SBD,M,
Boys,109.77,8,Britt Justiss,Roscoe Collegiate,108.86,229.06,147.42,179.17,555.65,Single-ply,SBD,M,
Boys,109.77,9,Tate Cain,Roscoe Highland,104.69,199.58,142.88,199.58,542.04,Single-ply,SBD,M,
Boys,109.77,10,Braden Coan,Tolar,109.77,219.99,122.47,199.58,542.04,Single-ply,SBD,M,
Boys,109.77,DQ,Monte Swaner,Mart,105.69,226.8,138.35,,,Single-ply,SBD,M,
Boys,124.74,1,Jagger Summa,Bosqueville,118.84,294.84,192.78,278.96,766.57,Single-ply,SBD,M,
Boys,124.74,2,Caiden Arnett,Mart,121.38,233.6,142.88,244.94,621.42,Single-ply,SBD,M,
Boys,124.74,3,Ruben Silva,De Leon,114.21,244.94,154.22,206.38,605.55,Single-ply,SBD,M,
Boys,124.74,4,Diego Vela,Roscoe Collegiate,112.04,235.87,165.56,195.04,596.47,Single-ply,SBD,M,
Boys,124.74,5,Noah Finnell,Bosqueville,113.85,231.33,136.08,215.46,582.87,Single-ply,SBD,M,
Boys,124.74,6,John Wyatt #2,Meridian,117.57,195.04,122.47,210.92,528.44,Single-ply,SBD,M,
Boys,124.74,7,Andy Cumins,Rio Vista,115.48,188.24,136.08,192.78,517.1,Single-ply,SBD,M,
Boys,124.74,8,Nic Adams,Hamilton,114.76,215.46,99.79,192.78,508.02,Single-ply,SBD,M,
Boys,124.74,9,Jesus Gonzalez,San Saba,115.58,197.31,122.47,176.9,496.68,Single-ply,SBD,M,
Boys,124.74,10,Jonathan Mills,Hubbard,115.21,176.9,108.86,199.58,485.34,Single-ply,SBD,M,
Boys,124.74,11,Cole Alton,Moody,110.77,181.44,129.27,170.1,480.81,Single-ply,SBD,M,
Boys,124.74,12,Blake Kennedy,Coleman,110.4,149.69,111.13,172.37,433.18,Single-ply,SBD,M,
Boys,139.71,1,Jeryd Fain,Coleman,129.18,283.5,188.24,235.87,707.6,Single-ply,SBD,M,
Boys,139.71,2,Cristian Ramirez,San Saba,126.1,317.51,151.95,226.8,696.26,Single-ply,SBD,M,
Boys,139.71,3,Joe Leal,De Leon,126.1,235.87,158.76,240.4,635.03,Single-ply,SBD,M,
Boys,139.71,4,Davis Orr,Moody,125.19,229.06,167.83,235.87,632.76,Single-ply,SBD,M,
Boys,139.71,5,Ben Wilson,Hico,125.46,238.14,127.01,213.19,578.33,Single-ply,SBD,M,
Boys,139.71,6,Adam McCoy,Goldthwaite,138.62,208.65,151.95,204.12,564.72,Single-ply,SBD,M,
Boys,139.71,7,Ethan Landeros,San Saba,132.99,210.92,106.59,165.56,483.08,Single-ply,SBD,M,
Boys,139.71,8,Tre'Shun Henry,Hubbard,134.35,149.69,106.59,176.9,433.18,Single-ply,SBD,M,
Boys,139.71+,1,Christian Ashby,Colorado City Colorado,142.88,235.87,149.69,215.46,601.01,Single-ply,SBD,M,
Boys,139.71+,2,Gage Balthrop,Roscoe Highland,160.66,235.87,149.69,199.58,585.13,Single-ply,SBD,M,
Boys,139.71+,3,Xavier Lopez,Roscoe Collegiate,140.34,242.67,142.88,174.63,560.19,Single-ply,SBD,M,
Boys,139.71+,4,Juan Lopez,San Saba,146.33,204.12,127.01,170.1,501.22,Single-ply,SBD,M,
Boys,139.71+,5,Daylon Smith,San Saba,150.5,195.04,127.01,165.56,487.61,Single-ply,SBD,M,
Boys,139.71+,6,Isiah Kraayvanger,Hubbard,169.55,138.35,138.35,195.04,471.74,Single-ply,SBD,M,
Boys,139.71+,7,Denton Fields,Hubbard,153.5,142.88,122.47,181.44,446.79,Single-ply,SBD,M,
Boys,139.71+,8,Cj Larson,Miles,142.79,154.22,113.4,140.61,408.23,Single-ply,SBD,M,
