Division,WeightClassKg,Place,Name,Team,BodyweightKg,Best3SquatKg,Best3BenchKg,Best3DeadliftKg,TotalKg,Equipment,Event,Sex
Boys,51.71,1,Cesar Ledesma,Burleson,49.62,154.22,83.91,174.63,412.77,Single-ply,SBD,M
Boys,51.71,2,Erick Samayoa,Burleson,50.71,131.54,74.84,172.37,378.75,Single-ply,SBD,M
Boys,51.71,3,Danny Carrillo,Waxahachie,50.98,122.47,72.57,151.95,347,Single-ply,SBD,M
Boys,51.71,4,Michael Harris,Waxahachie,50.98,77.11,47.63,97.52,222.26,Single-ply,SBD,M
Boys,51.71,5,Huston Cain,Burleson Centennial,48.53,61.23,36.29,83.91,181.44,Single-ply,SBD,M
Boys,55.79,1,Dylan Quintero,Burleson Centennial,53.52,127.01,70.31,138.35,335.66,Single-ply,SBD,M
Boys,55.79,DQ,Eduardo Renteria,Burleson,54.88,117.93,70.31,,,Single-ply,SBD,M
Boys,59.87,1,Jacob Moss,Burleson,59.87,183.7,102.06,190.51,476.27,Single-ply,SBD,M
Boys,59.87,2,Wyatt Achey,Midlothian,58.97,124.74,61.23,136.08,322.05,Single-ply,SBD,M
Boys,59.87,3,Julian Lopez,Midlothian,58.97,102.06,61.23,124.74,288.03,Single-ply,SBD,M
Boys,59.87,DQ,Titus Newsome,Joshua,59.51,140.61,68.04,,,Single-ply,SBD,M
Boys,67.13,1,Ethan Haynes,Burleson,67.04,229.06,127.01,231.33,587.4,Single-ply,SBD,M
Boys,67.13,2,Dax Lott,Waxahachie,62.6,163.29,102.06,156.49,421.84,Single-ply,SBD,M
Boys,67.13,3,Jaden Basham,Waxahachie,64.68,158.76,102.06,154.22,415.04,Single-ply,SBD,M
Boys,67.13,4,Jordan McKenzie #1,Midlothian,65.5,165.56,104.33,133.81,403.7,Single-ply,SBD,M
Boys,67.13,5,Hunter Ford,Burleson Centennial,62.96,136.08,86.18,170.1,392.36,Single-ply,SBD,M
Boys,67.13,6,Quentrell White,North Crowley,64.95,104.33,72.57,131.54,308.44,Single-ply,SBD,M
Boys,67.13,DQ,Skylar Davis,Joshua,60.96,,,,,Single-ply,SBD,M
Boys,74.84,1,Quincy Johnson,Waxahachie,74.57,170.1,113.4,183.7,467.2,Single-ply,SBD,M
Boys,74.84,2,D'Tyler Mason,Waxahachie,69.22,170.1,102.06,181.44,453.59,Single-ply,SBD,M
Boys,74.84,3,Cody Zell,Midlothian,70.67,154.22,97.52,167.83,419.57,Single-ply,SBD,M
Boys,74.84,4,Marquis Johnson,North Crowley,68.49,154.22,97.52,163.29,415.04,Single-ply,SBD,M
Boys,74.84,5,Nicholas Keramidis,Cleburne,68.4,154.22,83.91,145.15,383.29,Single-ply,SBD,M
Boys,74.84,DQ,Matthew Lacy,Cleburne,71.03,,,,,Single-ply,SBD,M
Boys,74.84,DQ,Tim Martin #4,Joshua,74.21,,,,,Single-ply,SBD,M
Boys,82.1,1,Jayton DeLeon,Midlothian,79.83,215.46,142.88,215.46,573.79,Single-ply,SBD,M
Boys,82.1,2,Tyrone Pettiford,North Crowley,78.02,208.65,102.06,238.14,548.85,Single-ply,SBD,M
Boys,82.1,3,John Mueller,Burleson,79.56,190.51,117.93,199.58,508.02,Single-ply,SBD,M
Boys,82.1,4,Wesley Free,Cleburne,79.83,201.85,115.67,183.7,501.22,Single-ply,SBD,M
Boys,82.1,5,Jonathen Guerrero,Waxahachie,81.28,165.56,120.2,172.37,458.13,Single-ply,SBD,M
Boys,82.1,6,Jeremiah Lizarraga,Waxahachie,76.2,165.56,106.59,181.44,453.59,Single-ply,SBD,M
Boys,82.1,7,Jayson McCall,Midlothian,76.29,156.49,104.33,192.78,453.59,Single-ply,SBD,M
Boys,82.1,8,Aj King,Midlothian,79.38,156.49,95.25,183.7,435.45,Single-ply,SBD,M
Boys,82.1,9,Armani Crayton,North Crowley,77.38,142.88,81.65,165.56,390.09,Single-ply,SBD,M
Boys,82.1,10,Parker Hancook,Burleson Centennial,78.47,90.72,65.77,108.86,265.35,Single-ply,SBD,M
Boys,82.1,DQ,Ryan Walz,Burleson Centennial,80.83,,,,,Single-ply,SBD,M
Boys,89.81,1,Hunter Cunningham,Burleson,86.18,222.26,133.81,238.14,594.21,Single-ply,SBD,M
Boys,89.81,2,Nicholas Hopkins,North Crowley,85.37,154.22,122.47,183.7,460.4,Single-ply,SBD,M
Boys,89.81,3,Branton Huffman,Midlothian,88.27,170.1,102.06,174.63,446.79,Single-ply,SBD,M
Boys,89.81,4,Henry Alfeghaly,North Crowley,83.73,149.69,97.52,192.78,439.98,Single-ply,SBD,M
Boys,89.81,DQ,Joey Rainbolt,Joshua,87.09,199.58,,,,Single-ply,SBD,M
Boys,99.79,1,Brek Galbreath,Joshua,90.63,238.14,158.76,272.16,669.05,Single-ply,SBD,M
Boys,99.79,2,Michael Kornak,Burleson Centennial,99.16,242.67,131.54,247.21,621.42,Single-ply,SBD,M
Boys,99.79,3,Justis Chaney,Joshua,94.71,204.12,151.95,219.99,576.06,Single-ply,SBD,M
Boys,99.79,4,Chris Hillard,Burleson Centennial,98.52,190.51,136.08,208.65,535.24,Single-ply,SBD,M
Boys,99.79,5,Jose Balderrama,Midlothian,99.79,199.58,124.74,183.7,508.02,Single-ply,SBD,M
Boys,99.79,6,William Asalele,Burleson,96.34,192.78,104.33,192.78,489.88,Single-ply,SBD,M
Boys,99.79,7,Will Mitchell,Burleson Centennial,91.26,183.7,108.86,195.04,487.61,Single-ply,SBD,M
Boys,99.79,8,Nicholas Campbell,North Crowley,95.71,174.63,111.13,201.85,487.61,Single-ply,SBD,M
Boys,99.79,DQ,Generraro Vital,Cleburne,91.26,,,,,Single-ply,SBD,M
Boys,99.79,DQ,Jayden Chaney,Joshua,99.61,174.63,,,,Single-ply,SBD,M
Boys,99.79,DQ,Cail Keeling,Joshua,90.63,172.37,102.06,,,Single-ply,SBD,M
Boys,109.77,1,Blake Edgington,Joshua,109.41,258.55,151.95,254.01,664.51,Single-ply,SBD,M
Boys,109.77,2,Tyler Massingill,Burleson,105.87,235.87,133.81,244.94,614.62,Single-ply,SBD,M
Boys,109.77,3,Joseph Chavez,Waxahachie,106.5,231.33,151.95,215.46,598.74,Single-ply,SBD,M
Boys,109.77,4,Dallas Berry,North Crowley,105.23,172.37,106.59,192.78,471.74,Single-ply,SBD,M
Boys,109.77,5,Gabe Tatum,Burleson Centennial,107.41,174.63,106.59,181.44,462.66,Single-ply,SBD,M
Boys,109.77,6,Kaleb Reed,North Crowley,101.33,158.76,88.45,174.63,421.84,Single-ply,SBD,M
Boys,124.74,1,Terrence Patterson,Burleson,121.02,215.46,154.22,240.4,610.08,Single-ply,SBD,M
Boys,124.74,2,Tyler Meksavanh,Burleson Centennial,124.56,215.46,136.08,219.99,571.53,Single-ply,SBD,M
Boys,124.74,3,Denton Ross,Waxahachie,123.56,224.53,136.08,206.38,566.99,Single-ply,SBD,M
Boys,124.74,4,Alejandro Moreno,Waxahachie,113.22,204.12,142.88,204.12,551.11,Single-ply,SBD,M
Boys,124.74,5,Enrique Villanueva,Cleburne,119.29,251.74,120.2,174.63,546.58,Single-ply,SBD,M
Boys,124.74,6,Darryn Kindles,Burleson Centennial,116.48,199.58,124.74,190.51,514.83,Single-ply,SBD,M
Boys,124.74,7,Griffith Peatrowsky,Burleson Centennial,122.38,151.95,95.25,167.83,415.04,Single-ply,SBD,M
Boys,124.74,DQ,Aaron Siddall,Burleson Centennial,119.48,129.27,,,,Single-ply,SBD,M
Boys,124.74,DQ,Colton Smith #3,Cleburne,112.22,,,,,Single-ply,SBD,M
Boys,124.74+,1,Thomas Ray,Midlothian,162.39,185.97,108.86,190.51,485.34,Single-ply,SBD,M
Boys,124.74+,DQ,Nicholas Lott,Burleson,129.27,254.01,,,,Single-ply,SBD,M
