Division,WeightClassKg,Place,Name,Team,BodyweightKg,Best3SquatKg,Best3BenchKg,Best3DeadliftKg,TotalKg,Equipment,Event,Sex
Boys,51.71,1,Ricky Guerra,Poteet,51.71,124.74,88.45,138.35,351.53,Single-ply,SBD,M
Boys,55.79,2,John Dominguez,Somerset,51.94,127.01,58.97,147.42,333.39,Single-ply,SBD,M
Boys,51.71,3,Joel Rodriguez,Castroville Medina Valley,51.71,102.06,83.91,133.81,319.78,Single-ply,SBD,M
Boys,51.71,4,Paul Arocha,Devine,51.71,113.4,79.38,127.01,319.78,Single-ply,SBD,M
Boys,51.71,5,Sid Alcoser,Somerset,51.71,129.27,56.7,120.2,306.17,Single-ply,SBD,M
Boys,51.71,DQ,Adan Escobedo,Somerset,51.71,90.72,,,,Single-ply,SBD,M
Boys,55.79,1,Sawyer Yandell,Devine,55.79,161.03,70.31,131.54,362.87,Single-ply,SBD,M
Boys,55.79,2,Robert Kight,Poteet,55.79,113.4,63.5,120.2,297.1,Single-ply,SBD,M
Boys,55.79,3,Dj Robertson,Johnson City,55.79,106.59,68.04,111.13,285.76,Single-ply,SBD,M
Boys,55.79,4,Alberto Lopez,Del Rio,55.79,92.99,61.23,122.47,276.69,Single-ply,SBD,M
Boys,59.87,1,Leonard Garza,Poteet,59.87,179.17,106.59,174.63,460.4,Single-ply,SBD,M
Boys,59.87,2,Caleb Gale,Somerset,59.78,172.37,83.91,188.24,444.52,Single-ply,SBD,M
Boys,59.87,3,Daniel Callahan,Johnson City,59.87,111.13,86.18,129.27,326.59,Single-ply,SBD,M
Boys,59.87,4,Hector Gonzales,Comfort,59.87,102.06,68.04,131.54,301.64,Single-ply,SBD,M
Boys,59.87,5,Mark Salines,Castroville Medina Valley,59.87,120.2,54.43,124.74,299.37,Single-ply,SBD,M
Boys,59.87,DQ,Ezekiel Cortez,Castroville Medina Valley,59.87,,,,,Single-ply,SBD,M
Boys,59.87,DQ,Victor Chinton,Pearsall,59.87,,,,,Single-ply,SBD,M
Boys,67.13,1,Robert Carrasco,Pleasanton,67.13,226.8,97.52,222.26,546.58,Single-ply,SBD,M
Boys,67.13,2,Ozzy Varela,Somerset,67.04,219.99,108.86,204.12,532.97,Single-ply,SBD,M
Boys,67.13,3,Adam Austin,Del Rio,67.13,163.29,90.72,181.44,435.45,Single-ply,SBD,M
Boys,67.13,4,Mason Lindner,Comfort,67.13,154.22,102.06,147.42,403.7,Single-ply,SBD,M
Boys,67.13,5,Ricky Hernandez,Del Rio,67.13,149.69,92.99,161.03,403.7,Single-ply,SBD,M
Boys,67.13,6,Rey Martinez,Pearsall,67.13,142.88,88.45,151.95,383.29,Single-ply,SBD,M
Boys,67.13,7,Jake Davis,Sabinal,67.13,124.74,86.18,167.83,378.75,Single-ply,SBD,M
Boys,67.13,8,Trevor Horvath,Castroville Medina Valley,67.13,138.35,95.25,140.61,374.21,Single-ply,SBD,M
Boys,67.13,9,Luis Flores,Poteet,67.13,147.42,68.04,154.22,369.68,Single-ply,SBD,M
Boys,67.13,10,Earvin Monje,Center Point,67.13,140.61,72.57,142.88,356.07,Single-ply,SBD,M
Boys,67.13,11,James Malone,Johnson City,67.13,124.74,102.06,127.01,353.8,Single-ply,SBD,M
Boys,67.13,12,Jose Mesa,Johnson City,67.13,115.67,79.38,133.81,328.85,Single-ply,SBD,M
Boys,67.13,13,Cameron Smith #9,Rocksprings,61.6,113.4,65.77,138.35,317.51,Single-ply,SBD,M
Boys,67.13,14,Johnny Salazar,Somerset,62.6,95.25,77.11,124.74,297.1,Single-ply,SBD,M
Boys,67.13,15,Francisco Martinez,Poteet,67.13,81.65,65.77,108.86,256.28,Single-ply,SBD,M
Boys,67.13,16,David Rodriguez,Sabinal,67.13,90.72,52.16,102.06,244.94,Single-ply,SBD,M
Boys,67.13,17,Daniel Mendiola,Somerset,65.77,70.31,49.9,111.13,231.33,Single-ply,SBD,M
Boys,74.84,1,Pedro Molina,Somerset,73.48,199.58,117.93,238.14,555.65,Single-ply,SBD,M
Boys,74.84,2,Josh Young,Bandera,74.84,188.24,124.74,195.04,508.02,Single-ply,SBD,M
Boys,74.84,3,Darrell DuBose,Devine,74.84,188.24,111.13,192.78,492.15,Single-ply,SBD,M
Boys,74.84,4,Mario Munoz,Center Point,74.84,183.7,99.79,170.1,453.59,Single-ply,SBD,M
Boys,74.84,5,Zach Bosquez,Comfort,74.84,154.22,104.33,192.78,451.32,Single-ply,SBD,M
Boys,74.84,6,Randall Masters,Somerset,70.31,156.49,102.06,170.1,428.64,Single-ply,SBD,M
Boys,74.84,7,Kris Guzman,Poteet,74.84,147.42,86.18,163.29,396.89,Single-ply,SBD,M
Boys,74.84,8,Michael Gutierrez,Rocksprings,71.76,129.27,77.11,142.88,349.27,Single-ply,SBD,M
Boys,74.84,9,Matt Chapa,Center Point,74.84,142.88,79.38,124.74,347,Single-ply,SBD,M
Boys,74.84,10,Alexander Dejrenia,Del Rio,74.84,111.13,90.72,138.35,340.19,Single-ply,SBD,M
Boys,74.84,11,Brandon Evans,Johnson City,74.84,115.67,83.91,122.47,322.05,Single-ply,SBD,M
Boys,74.84,DQ,Christopher Vinton,Pearsall,74.84,,,,,Single-ply,SBD,M
Boys,82.1,1,Alex Elizondo,Pearsall,82.1,238.14,136.08,226.8,601.01,Single-ply,SBD,M
Boys,82.1,2,Jj Elias,Somerset,78.02,204.12,111.13,215.46,530.7,Single-ply,SBD,M
Boys,82.1,3,Justin Quesada,Somerset,80.29,210.92,122.47,195.04,528.44,Single-ply,SBD,M
Boys,82.1,4,Joseph Sadler,Devine,82.1,199.58,111.13,206.38,517.1,Single-ply,SBD,M
Boys,82.1,5,Dillion Brunet,Center Point,82.1,195.04,115.67,201.85,512.56,Single-ply,SBD,M
Boys,82.1,6,Nate Cantrell,Comfort,82.1,176.9,129.27,192.78,498.95,Single-ply,SBD,M
Boys,82.1,7,Brian Staffen,Del Rio,82.1,167.83,106.59,185.97,460.4,Single-ply,SBD,M
Boys,82.1,8,Guillermo Guerra,Del Rio,82.1,161.03,108.86,181.44,451.32,Single-ply,SBD,M
Boys,82.1,9,Matthew Garcia,Somerset,81.65,136.08,90.72,147.42,374.21,Single-ply,SBD,M
Boys,82.1,10,Anthony Capra,Johnson City,82.1,115.67,83.91,142.88,342.46,Single-ply,SBD,M
Boys,82.1,11,Trapper Hooten,Center Point,82.1,127.01,81.65,127.01,335.66,Single-ply,SBD,M
Boys,82.1,DQ,Zach Sifuentes,Rocksprings,79.65,,,,,Single-ply,SBD,M
Boys,89.81,1,Logan Garza,Castroville Medina Valley,89.81,188.24,111.13,190.51,489.88,Single-ply,SBD,M
Boys,89.81,2,Garrett Deike,Johnson City,89.81,142.88,113.4,183.7,439.98,Single-ply,SBD,M
Boys,89.81,3,Kyle Wehe,Castroville Medina Valley,89.81,149.69,81.65,161.03,392.36,Single-ply,SBD,M
Boys,89.81,4,Zach Justice,Sabinal,89.81,88.45,74.84,136.08,299.37,Single-ply,SBD,M
Boys,99.79,1,Isaiah Vasquez,Pearsall,99.79,238.14,129.27,242.67,610.08,Single-ply,SBD,M
Boys,99.79,2,Brandon Fuentes,Pleasanton,99.79,238.14,151.95,217.72,607.81,Single-ply,SBD,M
Boys,99.79,3,Robert Trejo,Somerset,99.34,179.17,104.33,181.44,464.93,Single-ply,SBD,M
Boys,99.79,4,Jesse Solis,Somerset,93.89,158.76,104.33,185.97,449.06,Single-ply,SBD,M
Boys,99.79,5,Jack Richison,Comfort,99.79,149.69,111.13,188.24,449.06,Single-ply,SBD,M
Boys,99.79,6,Dillon Kendrick,Devine,99.79,161.03,127.01,149.69,437.72,Single-ply,SBD,M
Boys,99.79,7,Paul Masta,Del Rio,99.79,149.69,99.79,165.56,415.04,Single-ply,SBD,M
Boys,99.79,8,Matt Medina,Sabinal,99.79,136.08,97.52,154.22,387.82,Single-ply,SBD,M
Boys,99.79,DQ,Zane Sanchez,Devine,99.79,226.8,,,,Single-ply,SBD,M
Boys,109.77,1,Salvador Marines,Somerset,104.33,317.51,136.08,254.01,707.6,Single-ply,SBD,M
Boys,109.77,2,Ben Neuman,Hondo,106.59,263.08,140.61,210.92,614.62,Single-ply,SBD,M
Boys,109.77,3,Kevin Garcia,Poteet,109.77,260.82,127.01,210.92,598.74,Single-ply,SBD,M
Boys,109.77,4,Patrick Rodriguez,Devine,109.77,226.8,140.61,197.31,564.72,Single-ply,SBD,M
Boys,109.77,5,Salome Briseno,Poteet,109.77,176.9,117.93,185.97,480.81,Single-ply,SBD,M
Boys,109.77,6,Adrian Contreras,Poteet,109.77,172.37,106.59,197.31,476.27,Single-ply,SBD,M
Boys,109.77,7,Matt Thomas,Sabinal,109.77,158.76,95.25,215.46,469.47,Single-ply,SBD,M
Boys,109.77,8,Aaron Herrera,Del Rio,109.77,170.1,95.25,181.44,446.79,Single-ply,SBD,M
Boys,109.77,9,Mason Harrell,Johnson City,109.77,127.01,99.79,136.08,362.87,Single-ply,SBD,M
Boys,109.77,10,David Nieto,Pearsall,109.77,136.08,74.84,149.69,360.61,Single-ply,SBD,M
Boys,109.77,DQ,Tyler Guerrero,Devine,109.77,188.24,,,,Single-ply,SBD,M
Boys,124.74,1,Alfred Godines,Somerset,120.2,281.23,172.37,235.87,689.46,Single-ply,SBD,M
Boys,124.74,2,Daniel Casares,Somerset,115.67,249.48,154.22,217.72,621.42,Single-ply,SBD,M
Boys,124.74,3,Gus Zavala,Del Rio,124.74,226.8,142.88,226.8,596.47,Single-ply,SBD,M
Boys,124.74,4,Stevie Balderrama,Devine,124.74,233.6,140.61,217.72,591.94,Single-ply,SBD,M
Boys,124.74,5,Joe Aguero,Somerset,119.29,265.35,115.67,192.78,573.79,Single-ply,SBD,M
Boys,124.74,6,John Smith #11,Bandera,124.74,244.94,102.06,219.99,566.99,Single-ply,SBD,M
Boys,124.74,7,Emmitt Spurlock,Rocksprings,123.92,204.12,140.61,190.51,535.24,Single-ply,SBD,M
Boys,124.74,8,Zach Brooks,Pleasanton,124.74,213.19,106.59,215.46,535.24,Single-ply,SBD,M
Boys,124.74,9,Nick O'Bryant,Castroville Medina Valley,124.74,226.8,108.86,188.24,523.9,Single-ply,SBD,M
Boys,124.74,10,Chris Trujillo,Center Point,124.74,185.97,104.33,172.37,462.66,Single-ply,SBD,M
Boys,124.74,11,Zachary Moreno,Somerset,114.76,165.56,113.4,158.76,437.72,Single-ply,SBD,M
Boys,124.74,12,José Castillo #8,Somerset,117.93,167.83,106.59,163.29,437.72,Single-ply,SBD,M
Boys,124.74,13,Noah Ramirez,Comfort,124.74,149.69,86.18,158.76,394.63,Single-ply,SBD,M
Boys,124.74,DQ,Clayton Haley,Johnson City,124.74,183.7,142.88,,,Single-ply,SBD,M
Boys,124.74+,1,Tyler Seiler,Pearsall,131.54,244.94,181.44,238.14,664.51,Single-ply,SBD,M
Boys,124.74+,2,Trent Rhodes,Center Point,131.54,226.8,124.74,172.37,523.9,Single-ply,SBD,M
Boys,124.74+,3,Ruben Villarreal,Del Rio,131.09,142.88,92.99,199.58,435.45,Single-ply,SBD,M
Boys,124.74+,DQ,Dj Carlson,Devine,127.01,256.28,133.81,,,Single-ply,SBD,M
Boys,,NS,Brian Leal,Pearsall,,,,,,Single-ply,SBD,M
Boys,,NS,Dylan Neal,Pearsall,,,,,,Single-ply,SBD,M
Boys,,NS,John Ventura,Pearsall,,,,,,Single-ply,SBD,M
Boys,,NS,Cristobal Martinez,Pearsall,,,,,,Single-ply,SBD,M
Boys,,NS,Eric Luke,Comfort,,,,,,Single-ply,SBD,M
Boys,,NS,Alex Ramirez,Center Point,,,,,,Single-ply,SBD,M
Boys,,NS,Cody Martin,Center Point,,,,,,Single-ply,SBD,M
Boys,,NS,Roberto Zendejo,Center Point,,,,,,Single-ply,SBD,M
Boys,,NS,Gage Briones,Center Point,,,,,,Single-ply,SBD,M
Boys,,NS,Zach Custer,Center Point,,,,,,Single-ply,SBD,M
Boys,,NS,Santiago Contrares,Sabinal,,,,,,Single-ply,SBD,M
Boys,,NS,Miguel Sandoval,Sabinal,,,,,,Single-ply,SBD,M
Boys,,NS,Robert Aguilar,Sabinal,,,,,,Single-ply,SBD,M
Boys,,NS,Jesse Juma,Sabinal,,,,,,Single-ply,SBD,M
Boys,,NS,Mundo Perez,Rocksprings,,,,,,Single-ply,SBD,M
Boys,,NS,Jorge López,Rocksprings,,,,,,Single-ply,SBD,M
Boys,,NS,Edward Torres,Rocksprings,,,,,,Single-ply,SBD,M
Boys,,NS,Felipe Samora,Rocksprings,,,,,,Single-ply,SBD,M
Boys,,NS,Gabriel Flores,Sabinal,,,,,,Single-ply,SBD,M
Boys,,NS,Matt Puente,Sabinal,,,,,,Single-ply,SBD,M
Boys,,NS,Xavier Spurlock,Rocksprings,,,,,,Single-ply,SBD,M
Junior Varsity,51.71,1,Jesus Gomez,Somerset,50.8,102.06,72.57,124.74,299.37,Single-ply,SBD,M
Junior Varsity,55.79,1,Oscar de Leon,Somerset,55.61,86.18,61.23,129.27,276.69,Single-ply,SBD,M
Junior Varsity,67.13,1,Ozzy Gonzalez,Somerset,63.5,142.88,72.57,172.37,387.82,Single-ply,SBD,M
Junior Varsity,67.13,2,Miguel Cano,Pleasanton,67.13,136.08,77.11,154.22,367.41,Single-ply,SBD,M
Junior Varsity,67.13,3,Lawson Allen,Bandera,67.13,124.74,90.72,147.42,362.87,Single-ply,SBD,M
Junior Varsity,67.13,4,Josh Ramos,Somerset,67.13,136.08,61.23,163.29,360.61,Single-ply,SBD,M
Junior Varsity,74.84,1,Isreal Pacheco,Somerset,70.31,142.88,90.72,204.12,437.72,Single-ply,SBD,M
Junior Varsity,74.84,2,Taylor Shearrer,Pleasanton,74.84,163.29,92.99,170.1,426.38,Single-ply,SBD,M
Junior Varsity,74.84,3,Corey Spencer,Comfort,74.84,127.01,70.31,149.69,347,Single-ply,SBD,M
Junior Varsity,82.1,1,Matt Hempstead,Bandera,82.1,149.69,86.18,151.95,387.82,Single-ply,SBD,M
Junior Varsity,82.1,2,Michael Bustamante,Somerset,77.56,145.15,92.99,145.15,383.29,Single-ply,SBD,M
Junior Varsity,82.1,3,Nick Villareal,Somerset,80.74,140.61,72.57,163.29,376.48,Single-ply,SBD,M
Junior Varsity,82.1,4,Bailey Walker,Comfort,82.1,111.13,68.04,145.15,324.32,Single-ply,SBD,M
Junior Varsity,82.1,DQ,Steven Sartuche,Devine,82.1,131.54,,,,Single-ply,SBD,M
Junior Varsity,82.1,DQ,Jon Ramos,Poteet,82.1,131.54,74.84,,,Single-ply,SBD,M
Junior Varsity,89.81,1,Matt Gamez,Poteet,89.81,179.17,95.25,188.24,462.66,Single-ply,SBD,M
Junior Varsity,89.81,2,Hunter Prince,Bandera,89.81,142.88,74.84,163.29,381.02,Single-ply,SBD,M
Junior Varsity,89.81,3,Travis Whitefield,Bandera,89.81,127.01,79.38,136.08,342.46,Single-ply,SBD,M
Junior Varsity,99.79,1,Mark Cerda,Somerset,91.63,185.97,104.33,195.04,485.34,Single-ply,SBD,M
Junior Varsity,99.79,2,Jason Van Epps,Pleasanton,99.79,181.44,83.91,183.7,449.06,Single-ply,SBD,M
Junior Varsity,99.79,3,Bradley Whitlow,Bandera,99.79,138.35,95.25,142.88,376.48,Single-ply,SBD,M
Junior Varsity,99.79,4,Bryce Sandoval,Poteet,99.79,136.08,88.45,136.08,360.61,Single-ply,SBD,M
Junior Varsity,99.79,DQ,Alex Villarreal,Somerset,98.43,,,,,Single-ply,SBD,M
Junior Varsity,109.77,1,Frank Hernandez,Pleasanton,109.77,172.37,111.13,172.37,455.86,Single-ply,SBD,M
Junior Varsity,109.77,2,Michael Blythe,Somerset,106.59,136.08,95.25,142.88,374.21,Single-ply,SBD,M
Junior Varsity,124.74,1,Gabriel Garza #1,Somerset,119.29,217.72,104.33,190.51,512.56,Single-ply,SBD,M
Junior Varsity,124.74,2,Ronnie Lucio,Poteet,124.74,206.38,88.45,165.56,460.4,Single-ply,SBD,M
Junior Varsity,,NS,Daniel Lozano,Comfort,,,,,,Single-ply,SBD,M
Junior Varsity,,NS,Chris Taylor #9,Comfort,,,,,,Single-ply,SBD,M
Freshmen,51.71,1,Max Obregon,Dilley,51.71,136.08,68.04,133.81,337.93,Single-ply,SBD,M
Freshmen,51.71,2,Sebastian Estrada,Somerset,51.71,63.5,43.09,95.25,201.85,Single-ply,SBD,M
Freshmen,55.79,1,Cody Jacobsen,Bandera,55.79,92.99,58.97,102.06,254.01,Single-ply,SBD,M
Freshmen,59.87,1,Prendi Garcia,Dilley,59.87,145.15,83.91,140.61,369.68,Single-ply,SBD,M
Freshmen,59.87,2,Alan Espinoza,Dilley,59.87,115.67,63.5,140.61,319.78,Single-ply,SBD,M
Freshmen,59.87,3,Demetri Molina,Somerset,58.97,102.06,43.09,127.01,272.16,Single-ply,SBD,M
Freshmen,59.87,4,Brandon Kerr,Somerset,58.97,81.65,36.29,111.13,229.06,Single-ply,SBD,M
Freshmen,59.87,5,Cody Rocha,Pleasanton,59.87,83.91,36.29,102.06,222.26,Single-ply,SBD,M
Freshmen,67.13,1,Macario Hernandez,Pleasanton,67.13,147.42,74.84,156.49,378.75,Single-ply,SBD,M
Freshmen,67.13,2,Mario Cano,Pleasanton,67.13,117.93,70.31,145.15,333.39,Single-ply,SBD,M
Freshmen,67.13,3,Braden Bauer,Pleasanton,67.13,117.93,58.97,120.2,297.1,Single-ply,SBD,M
Freshmen,67.13,4,Jonathan Stufflet,Bandera,67.13,113.4,54.43,127.01,294.84,Single-ply,SBD,M
Freshmen,67.13,DQ,Roy Sarabia,Somerset,62.6,,,,,Single-ply,SBD,M
Freshmen,74.84,1,Omar Guadarrana,San Antonio Southside,74.84,158.76,90.72,170.1,419.57,Single-ply,SBD,M
Freshmen,74.84,2,Michael Chavez,Devine,74.84,133.81,83.91,154.22,371.95,Single-ply,SBD,M
Freshmen,74.84,3,Raul Conchas,Del Rio,74.84,92.99,61.23,127.01,281.23,Single-ply,SBD,M
Freshmen,74.84,4,Zachary Casaras,Somerset,72.57,65.77,56.7,108.86,231.33,Single-ply,SBD,M
Freshmen,74.84,DQ,Spencer Del Toro,Somerset,68.95,,,,,Single-ply,SBD,M
Freshmen,74.84,DQ,Rosendo Quintero,Somerset,72.57,,,,,Single-ply,SBD,M
Freshmen,82.1,1,David Bernal,Pleasanton,82.1,176.9,88.45,172.37,437.72,Single-ply,SBD,M
Freshmen,82.1,2,Thomas Trevino,Pleasanton,82.1,158.76,86.18,172.37,417.3,Single-ply,SBD,M
Freshmen,82.1,3,Daniel Autrey,Dilley,82.1,149.69,104.33,154.22,408.23,Single-ply,SBD,M
Freshmen,82.1,4,John Valdez,Somerset,77.11,145.15,88.45,154.22,387.82,Single-ply,SBD,M
Freshmen,82.1,5,Joe D Garcis,Dilley,82.1,142.88,97.52,145.15,385.55,Single-ply,SBD,M
Freshmen,82.1,6,Joey Huizas,Del Rio,82.1,97.52,86.18,138.35,322.05,Single-ply,SBD,M
Freshmen,82.1,7,Mario Bermea,Devine,82.1,108.86,65.77,136.08,310.71,Single-ply,SBD,M
Freshmen,82.1,8,Jeremy Holloway,Somerset,79.38,68.04,79.38,142.88,290.3,Single-ply,SBD,M
Freshmen,89.81,1,Carlos Riojas,Somerset,89.81,140.61,63.5,124.74,328.85,Single-ply,SBD,M
Freshmen,89.81,2,Brent Ahrews,Bandera,89.81,117.93,74.84,136.08,328.85,Single-ply,SBD,M
Freshmen,89.81,3,Yair Iglesias,Devine,89.81,106.59,92.99,122.47,322.05,Single-ply,SBD,M
Freshmen,89.81,4,Ruben Molina,Dilley,89.81,115.67,56.7,113.4,285.76,Single-ply,SBD,M
Freshmen,89.81,5,Salvador Garcia,Pleasanton,89.81,102.06,54.43,122.47,278.96,Single-ply,SBD,M
Freshmen,89.81,DQ,Joe Tovar,Somerset,83.91,,,,,Single-ply,SBD,M
Freshmen,99.79,1,Leo Perez,Devine,99.79,185.97,97.52,167.83,451.32,Single-ply,SBD,M
Freshmen,99.79,2,Izzy Olivares,Bandera,99.79,142.88,95.25,151.95,390.09,Single-ply,SBD,M
Freshmen,99.79,3,Julius Gonzalez,Dilley,99.79,147.42,68.04,124.74,340.19,Single-ply,SBD,M
Freshmen,99.79,4,Perez Donny,Somerset,96.62,142.88,77.11,,219.99,Single-ply,SB,M
Freshmen,109.77,1,Byree Douda,Bandera,109.77,167.83,113.4,172.37,453.59,Single-ply,SBD,M
Freshmen,109.77,2,Alex Trevino,San Antonio Southside,109.77,167.83,90.72,183.7,442.25,Single-ply,SBD,M
Freshmen,109.77,3,Bj Frieda,Somerset,106.59,154.22,65.77,147.42,367.41,Single-ply,SBD,M
Freshmen,109.77,4,Joe Zulaica,Pleasanton,109.77,102.06,61.23,113.4,276.69,Single-ply,SBD,M
Freshmen,124.74,1,Andy Valladolid,Somerset,122.47,138.35,72.57,133.81,344.73,Single-ply,SBD,M
Freshmen,124.74,2,Gabriel Maldonado,Dilley,124.74,136.08,52.16,99.79,288.03,Single-ply,SBD,M
Freshmen,124.74,DQ,Leo Hernandez #3,Somerset,117.93,142.88,,,,Single-ply,SBD,M
Freshmen,124.74+,1,Jesse Flores,Pleasanton,131.54,136.08,54.43,149.69,340.19,Single-ply,SBD,M
Freshmen,,NS,Dustin Trevino,San Antonio Southside,,,,,,Single-ply,SBD,M
Freshmen,,NS,Gilbert Garza,San Antonio Southside,,,,,,Single-ply,SBD,M
